CD_ROM_XA

// Track 1
TRACK MODE2_FORM_MIX
NO COPY
DATAFILE "TOMBRAIDER.bin" 27:42:59 // length in bytes: 291320224

// Track 2
TRACK AUDIO
NO COPY
NO PRE_EMPHASIS
TWO_CHANNEL_AUDIO
SILENCE 00:02:00
FILE "TOMBRAIDER.bin" #291320224 0 03:16:19
START 00:02:00

// Track 3
TRACK AUDIO
NO COPY
NO PRE_EMPHASIS
TWO_CHANNEL_AUDIO
FILE "TOMBRAIDER.bin" #291320224 03:16:19 01:04:15
START 00:00:24

// Track 4
TRACK AUDIO
NO COPY
NO PRE_EMPHASIS
TWO_CHANNEL_AUDIO
FILE "TOMBRAIDER.bin" #291320224 04:20:34 02:03:29
START 00:00:07

// Track 5
TRACK AUDIO
NO COPY
NO PRE_EMPHASIS
TWO_CHANNEL_AUDIO
FILE "TOMBRAIDER.bin" #291320224 06:23:63 02:00:14
START 00:00:17

// Track 6
TRACK AUDIO
NO COPY
NO PRE_EMPHASIS
TWO_CHANNEL_AUDIO
FILE "TOMBRAIDER.bin" #291320224 08:24:02 01:16:71
START 00:00:14

// Track 7
TRACK AUDIO
NO COPY
NO PRE_EMPHASIS
TWO_CHANNEL_AUDIO
FILE "TOMBRAIDER.bin" #291320224 09:40:73 00:55:71
START 00:00:17

// Track 8
TRACK AUDIO
NO COPY
NO PRE_EMPHASIS
TWO_CHANNEL_AUDIO
FILE "TOMBRAIDER.bin" #291320224 10:36:69 01:08:23
START 00:00:12

// Track 9
TRACK AUDIO
NO COPY
NO PRE_EMPHASIS
TWO_CHANNEL_AUDIO
FILE "TOMBRAIDER.bin" #291320224 11:45:17 00:40:04
START 00:00:08

// Track 10
TRACK AUDIO
NO COPY
NO PRE_EMPHASIS
TWO_CHANNEL_AUDIO
FILE "TOMBRAIDER.bin" #291320224 12:25:21 01:19:08
START 00:00:10

// Track 11
TRACK AUDIO
NO COPY
NO PRE_EMPHASIS
TWO_CHANNEL_AUDIO
FILE "TOMBRAIDER.bin" #291320224 13:44:29 00:08:57
START 00:00:23

// Track 12
TRACK AUDIO
NO COPY
NO PRE_EMPHASIS
TWO_CHANNEL_AUDIO
FILE "TOMBRAIDER.bin" #291320224 13:53:11 00:14:62
START 00:00:03

// Track 13
TRACK AUDIO
NO COPY
NO PRE_EMPHASIS
TWO_CHANNEL_AUDIO
FILE "TOMBRAIDER.bin" #291320224 14:07:73 00:06:74
START 00:00:15

// Track 14
TRACK AUDIO
NO COPY
NO PRE_EMPHASIS
TWO_CHANNEL_AUDIO
FILE "TOMBRAIDER.bin" #291320224 14:14:72 00:12:07
START 00:00:19

// Track 15
TRACK AUDIO
NO COPY
NO PRE_EMPHASIS
TWO_CHANNEL_AUDIO
FILE "TOMBRAIDER.bin" #291320224 14:27:04 00:11:05
START 00:00:17

// Track 16
TRACK AUDIO
NO COPY
NO PRE_EMPHASIS
TWO_CHANNEL_AUDIO
FILE "TOMBRAIDER.bin" #291320224 14:38:09 00:38:70
START 00:00:15

// Track 17
TRACK AUDIO
NO COPY
NO PRE_EMPHASIS
TWO_CHANNEL_AUDIO
FILE "TOMBRAIDER.bin" #291320224 15:17:04 00:42:62
START 00:00:08

// Track 18
TRACK AUDIO
NO COPY
NO PRE_EMPHASIS
TWO_CHANNEL_AUDIO
FILE "TOMBRAIDER.bin" #291320224 15:59:66 00:25:23
START 00:00:10

// Track 19
TRACK AUDIO
NO COPY
NO PRE_EMPHASIS
TWO_CHANNEL_AUDIO
FILE "TOMBRAIDER.bin" #291320224 16:25:14 01:28:48
START 00:00:11

// Track 20
TRACK AUDIO
NO COPY
NO PRE_EMPHASIS
TWO_CHANNEL_AUDIO
FILE "TOMBRAIDER.bin" #291320224 17:53:62 00:54:18
START 00:00:08

// Track 21
TRACK AUDIO
NO COPY
NO PRE_EMPHASIS
TWO_CHANNEL_AUDIO
FILE "TOMBRAIDER.bin" #291320224 18:48:05 00:41:14
START 00:00:07

// Track 22
TRACK AUDIO
NO COPY
NO PRE_EMPHASIS
TWO_CHANNEL_AUDIO
FILE "TOMBRAIDER.bin" #291320224 19:29:19 01:03:46
START 00:00:10

// Track 23
TRACK AUDIO
NO COPY
NO PRE_EMPHASIS
TWO_CHANNEL_AUDIO
FILE "TOMBRAIDER.bin" #291320224 20:32:65 00:57:32
START 00:00:02

// Track 24
TRACK AUDIO
NO COPY
NO PRE_EMPHASIS
TWO_CHANNEL_AUDIO
FILE "TOMBRAIDER.bin" #291320224 21:30:22 00:15:38
START 00:00:14

// Track 25
TRACK AUDIO
NO COPY
NO PRE_EMPHASIS
TWO_CHANNEL_AUDIO
FILE "TOMBRAIDER.bin" #291320224 21:45:60 00:36:50
START 00:00:04

// Track 26
TRACK AUDIO
NO COPY
NO PRE_EMPHASIS
TWO_CHANNEL_AUDIO
FILE "TOMBRAIDER.bin" #291320224 22:22:35 00:07:09
START 00:00:17

// Track 27
TRACK AUDIO
NO COPY
NO PRE_EMPHASIS
TWO_CHANNEL_AUDIO
FILE "TOMBRAIDER.bin" #291320224 22:29:44 00:06:71
START 00:00:09

// Track 28
TRACK AUDIO
NO COPY
NO PRE_EMPHASIS
TWO_CHANNEL_AUDIO
FILE "TOMBRAIDER.bin" #291320224 22:36:40 00:06:67
START 00:00:14

// Track 29
TRACK AUDIO
NO COPY
NO PRE_EMPHASIS
TWO_CHANNEL_AUDIO
FILE "TOMBRAIDER.bin" #291320224 22:43:32 00:07:17
START 00:00:22

// Track 30
TRACK AUDIO
NO COPY
NO PRE_EMPHASIS
TWO_CHANNEL_AUDIO
FILE "TOMBRAIDER.bin" #291320224 22:50:49 00:07:73
START 00:00:06

// Track 31
TRACK AUDIO
NO COPY
NO PRE_EMPHASIS
TWO_CHANNEL_AUDIO
FILE "TOMBRAIDER.bin" #291320224 22:58:47 00:07:02
START 00:00:06

// Track 32
TRACK AUDIO
NO COPY
NO PRE_EMPHASIS
TWO_CHANNEL_AUDIO
FILE "TOMBRAIDER.bin" #291320224 23:05:49 00:09:20
START 00:00:05

// Track 33
TRACK AUDIO
NO COPY
NO PRE_EMPHASIS
TWO_CHANNEL_AUDIO
FILE "TOMBRAIDER.bin" #291320224 23:14:69 00:09:53
START 00:00:23

// Track 34
TRACK AUDIO
NO COPY
NO PRE_EMPHASIS
TWO_CHANNEL_AUDIO
FILE "TOMBRAIDER.bin" #291320224 23:24:47 00:07:35
START 00:00:12

// Track 35
TRACK AUDIO
NO COPY
NO PRE_EMPHASIS
TWO_CHANNEL_AUDIO
FILE "TOMBRAIDER.bin" #291320224 23:32:07 00:07:29
START 00:00:24

// Track 36
TRACK AUDIO
NO COPY
NO PRE_EMPHASIS
TWO_CHANNEL_AUDIO
FILE "TOMBRAIDER.bin" #291320224 23:39:36 00:16:61
START 00:00:09

// Track 37
TRACK AUDIO
NO COPY
NO PRE_EMPHASIS
TWO_CHANNEL_AUDIO
FILE "TOMBRAIDER.bin" #291320224 23:56:22 00:06:70
START 00:00:19

// Track 38
TRACK AUDIO
NO COPY
NO PRE_EMPHASIS
TWO_CHANNEL_AUDIO
FILE "TOMBRAIDER.bin" #291320224 24:03:17 00:07:16
START 00:00:25

// Track 39
TRACK AUDIO
NO COPY
NO PRE_EMPHASIS
TWO_CHANNEL_AUDIO
FILE "TOMBRAIDER.bin" #291320224 24:10:33 00:16:10
START 00:00:10

// Track 40
TRACK AUDIO
NO COPY
NO PRE_EMPHASIS
TWO_CHANNEL_AUDIO
FILE "TOMBRAIDER.bin" #291320224 24:26:43 00:10:32
START 00:00:06

// Track 41
TRACK AUDIO
NO COPY
NO PRE_EMPHASIS
TWO_CHANNEL_AUDIO
FILE "TOMBRAIDER.bin" #291320224 24:37:00 00:07:10
START 00:00:14

// Track 42
TRACK AUDIO
NO COPY
NO PRE_EMPHASIS
TWO_CHANNEL_AUDIO
FILE "TOMBRAIDER.bin" #291320224 24:44:10 00:06:68
START 00:00:05

// Track 43
TRACK AUDIO
NO COPY
NO PRE_EMPHASIS
TWO_CHANNEL_AUDIO
FILE "TOMBRAIDER.bin" #291320224 24:51:03 00:09:22
START 00:00:12

// Track 44
TRACK AUDIO
NO COPY
NO PRE_EMPHASIS
TWO_CHANNEL_AUDIO
FILE "TOMBRAIDER.bin" #291320224 25:00:25 00:08:12
START 00:00:03

// Track 45
TRACK AUDIO
NO COPY
NO PRE_EMPHASIS
TWO_CHANNEL_AUDIO
FILE "TOMBRAIDER.bin" #291320224 25:08:37 00:10:02
START 00:00:15

// Track 46
TRACK AUDIO
NO COPY
NO PRE_EMPHASIS
TWO_CHANNEL_AUDIO
FILE "TOMBRAIDER.bin" #291320224 25:18:39 00:06:68
START 00:00:04

// Track 47
TRACK AUDIO
NO COPY
NO PRE_EMPHASIS
TWO_CHANNEL_AUDIO
FILE "TOMBRAIDER.bin" #291320224 25:25:32 00:07:05
START 00:00:12

// Track 48
TRACK AUDIO
NO COPY
NO PRE_EMPHASIS
TWO_CHANNEL_AUDIO
FILE "TOMBRAIDER.bin" #291320224 25:32:37 00:07:01
START 00:00:08

// Track 49
TRACK AUDIO
NO COPY
NO PRE_EMPHASIS
TWO_CHANNEL_AUDIO
FILE "TOMBRAIDER.bin" #291320224 25:39:38 00:15:71
START 00:00:08

// Track 50
TRACK AUDIO
NO COPY
NO PRE_EMPHASIS
TWO_CHANNEL_AUDIO
FILE "TOMBRAIDER.bin" #291320224 25:55:34 00:06:68
START 00:00:08

// Track 51
TRACK AUDIO
NO COPY
NO PRE_EMPHASIS
TWO_CHANNEL_AUDIO
FILE "TOMBRAIDER.bin" #291320224 26:02:27 00:07:01
START 00:00:15

// Track 52
TRACK AUDIO
NO COPY
NO PRE_EMPHASIS
TWO_CHANNEL_AUDIO
FILE "TOMBRAIDER.bin" #291320224 26:09:28 00:07:03
START 00:00:14

// Track 53
TRACK AUDIO
NO COPY
NO PRE_EMPHASIS
TWO_CHANNEL_AUDIO
FILE "TOMBRAIDER.bin" #291320224 26:16:31 00:09:10
START 00:00:12

// Track 54
TRACK AUDIO
NO COPY
NO PRE_EMPHASIS
TWO_CHANNEL_AUDIO
FILE "TOMBRAIDER.bin" #291320224 26:25:41 00:07:16
START 00:00:22

// Track 55
TRACK AUDIO
NO COPY
NO PRE_EMPHASIS
TWO_CHANNEL_AUDIO
FILE "TOMBRAIDER.bin" #291320224 26:32:57 00:09:53
START 00:00:07

// Track 56
TRACK AUDIO
NO COPY
NO PRE_EMPHASIS
TWO_CHANNEL_AUDIO
FILE "TOMBRAIDER.bin" #291320224 26:42:35 00:06:62
START 00:00:08

// Track 57
TRACK AUDIO
NO COPY
NO PRE_EMPHASIS
TWO_CHANNEL_AUDIO
FILE "TOMBRAIDER.bin" #291320224 26:49:22 03:17:22
START 00:00:22
