{
	"source":           "https://archive.org/download/Redump.orgSonyPlayStation-NTSC-U-T",
	"disc_label":       "SLUS-00885",
	"disc_track1_size":  732691072,
	"disc_tracks":       1,
	"latest_timestamp": "1999-11-10 19:24:56 +0100  	slus_008.85"
}
