{
	"source":           "Complete PSOne Classics 0001-0975 (Renascene No. Order)",
	"renascene_no":      0163,
	"eboot_crc32":      "12b046b6",
	"document_crc32":   "71734fe3",
	"disc_label":       "TOMBRAIDER",
	"disc_track1_size":  291308544,
	"disc_tracks":       1,
	"latest_timestamp": "1996-11-25 03:53:40 +0100  	psxdata/level10a.psx"
}
