CD_ROM_XA

// Track 1
TRACK MODE2_FORM_MIX
NO COPY
DATAFILE "TOMB_RAIDER_2.bin" 29:23:71 // length in bytes: 309043456

// Track 2
TRACK AUDIO
NO COPY
NO PRE_EMPHASIS
TWO_CHANNEL_AUDIO
SILENCE 00:02:00
FILE "TOMB_RAIDER_2.bin" #309043456 0 01:27:22
START 00:02:00

// Track 3
TRACK AUDIO
NO COPY
NO PRE_EMPHASIS
TWO_CHANNEL_AUDIO
FILE "TOMB_RAIDER_2.bin" #309043456 01:27:22 01:56:31
START 00:00:12

// Track 4
TRACK AUDIO
NO COPY
NO PRE_EMPHASIS
TWO_CHANNEL_AUDIO
FILE "TOMB_RAIDER_2.bin" #309043456 03:23:53 02:17:39
START 00:00:06

// Track 5
TRACK AUDIO
NO COPY
NO PRE_EMPHASIS
TWO_CHANNEL_AUDIO
FILE "TOMB_RAIDER_2.bin" #309043456 05:41:17 00:09:64
START 00:00:27

// Track 6
TRACK AUDIO
NO COPY
NO PRE_EMPHASIS
TWO_CHANNEL_AUDIO
FILE "TOMB_RAIDER_2.bin" #309043456 05:51:06 00:09:16
START 00:00:23

// Track 7
TRACK AUDIO
NO COPY
NO PRE_EMPHASIS
TWO_CHANNEL_AUDIO
FILE "TOMB_RAIDER_2.bin" #309043456 06:00:22 00:06:66
START 00:00:04

// Track 8
TRACK AUDIO
NO COPY
NO PRE_EMPHASIS
TWO_CHANNEL_AUDIO
FILE "TOMB_RAIDER_2.bin" #309043456 06:07:13 00:06:66
START 00:00:14

// Track 9
TRACK AUDIO
NO COPY
NO PRE_EMPHASIS
TWO_CHANNEL_AUDIO
FILE "TOMB_RAIDER_2.bin" #309043456 06:14:04 00:08:14
START 00:00:25

// Track 10
TRACK AUDIO
NO COPY
NO PRE_EMPHASIS
TWO_CHANNEL_AUDIO
FILE "TOMB_RAIDER_2.bin" #309043456 06:22:18 00:13:27
START 00:00:11

// Track 11
TRACK AUDIO
NO COPY
NO PRE_EMPHASIS
TWO_CHANNEL_AUDIO
FILE "TOMB_RAIDER_2.bin" #309043456 06:35:45 00:17:54
START 00:00:08

// Track 12
TRACK AUDIO
NO COPY
NO PRE_EMPHASIS
TWO_CHANNEL_AUDIO
FILE "TOMB_RAIDER_2.bin" #309043456 06:53:24 00:10:49
START 00:00:14

// Track 13
TRACK AUDIO
NO COPY
NO PRE_EMPHASIS
TWO_CHANNEL_AUDIO
FILE "TOMB_RAIDER_2.bin" #309043456 07:03:73 00:10:62
START 00:00:03

// Track 14
TRACK AUDIO
NO COPY
NO PRE_EMPHASIS
TWO_CHANNEL_AUDIO
FILE "TOMB_RAIDER_2.bin" #309043456 07:14:60 00:07:20
START 00:00:25

// Track 15
TRACK AUDIO
NO COPY
NO PRE_EMPHASIS
TWO_CHANNEL_AUDIO
FILE "TOMB_RAIDER_2.bin" #309043456 07:22:05 00:06:65
START 00:00:06

// Track 16
TRACK AUDIO
NO COPY
NO PRE_EMPHASIS
TWO_CHANNEL_AUDIO
FILE "TOMB_RAIDER_2.bin" #309043456 07:28:70 00:07:17
START 00:00:17

// Track 17
TRACK AUDIO
NO COPY
NO PRE_EMPHASIS
TWO_CHANNEL_AUDIO
FILE "TOMB_RAIDER_2.bin" #309043456 07:36:12 00:10:68
START 00:00:02

// Track 18
TRACK AUDIO
NO COPY
NO PRE_EMPHASIS
TWO_CHANNEL_AUDIO
FILE "TOMB_RAIDER_2.bin" #309043456 07:47:05 00:06:70
START 00:00:11

// Track 19
TRACK AUDIO
NO COPY
NO PRE_EMPHASIS
TWO_CHANNEL_AUDIO
FILE "TOMB_RAIDER_2.bin" #309043456 07:54:00 00:06:70
START 00:00:17

// Track 20
TRACK AUDIO
NO COPY
NO PRE_EMPHASIS
TWO_CHANNEL_AUDIO
FILE "TOMB_RAIDER_2.bin" #309043456 08:00:70 00:07:17
START 00:00:23

// Track 21
TRACK AUDIO
NO COPY
NO PRE_EMPHASIS
TWO_CHANNEL_AUDIO
FILE "TOMB_RAIDER_2.bin" #309043456 08:08:12 00:06:64
START 00:00:07

// Track 22
TRACK AUDIO
NO COPY
NO PRE_EMPHASIS
TWO_CHANNEL_AUDIO
FILE "TOMB_RAIDER_2.bin" #309043456 08:15:01 00:07:09
START 00:00:19

// Track 23
TRACK AUDIO
NO COPY
NO PRE_EMPHASIS
TWO_CHANNEL_AUDIO
FILE "TOMB_RAIDER_2.bin" #309043456 08:22:10 00:18:40
START 00:00:11

// Track 24
TRACK AUDIO
NO COPY
NO PRE_EMPHASIS
TWO_CHANNEL_AUDIO
FILE "TOMB_RAIDER_2.bin" #309043456 08:40:50 00:11:01
START 00:00:20

// Track 25
TRACK AUDIO
NO COPY
NO PRE_EMPHASIS
TWO_CHANNEL_AUDIO
FILE "TOMB_RAIDER_2.bin" #309043456 08:51:51 00:07:18
START 00:00:20

// Track 26
TRACK AUDIO
NO COPY
NO PRE_EMPHASIS
TWO_CHANNEL_AUDIO
FILE "TOMB_RAIDER_2.bin" #309043456 08:58:69 00:53:59
START 00:00:03

// Track 27
TRACK AUDIO
NO COPY
NO PRE_EMPHASIS
TWO_CHANNEL_AUDIO
FILE "TOMB_RAIDER_2.bin" #309043456 09:52:53 01:01:47
START 00:00:09

// Track 28
TRACK AUDIO
NO COPY
NO PRE_EMPHASIS
TWO_CHANNEL_AUDIO
FILE "TOMB_RAIDER_2.bin" #309043456 10:54:25 01:23:14
START 00:00:23

// Track 29
TRACK AUDIO
NO COPY
NO PRE_EMPHASIS
TWO_CHANNEL_AUDIO
FILE "TOMB_RAIDER_2.bin" #309043456 12:17:39 01:08:34
START 00:00:09

// Track 30
TRACK AUDIO
NO COPY
NO PRE_EMPHASIS
TWO_CHANNEL_AUDIO
FILE "TOMB_RAIDER_2.bin" #309043456 13:25:73 01:35:65
START 00:00:06

// Track 31
TRACK AUDIO
NO COPY
NO PRE_EMPHASIS
TWO_CHANNEL_AUDIO
FILE "TOMB_RAIDER_2.bin" #309043456 15:01:63 00:09:57
START 00:00:08

// Track 32
TRACK AUDIO
NO COPY
NO PRE_EMPHASIS
TWO_CHANNEL_AUDIO
FILE "TOMB_RAIDER_2.bin" #309043456 15:11:45 00:06:31
START 00:00:08

// Track 33
TRACK AUDIO
NO COPY
NO PRE_EMPHASIS
TWO_CHANNEL_AUDIO
FILE "TOMB_RAIDER_2.bin" #309043456 15:18:01 00:18:51
START 00:00:25

// Track 34
TRACK AUDIO
NO COPY
NO PRE_EMPHASIS
TWO_CHANNEL_AUDIO
FILE "TOMB_RAIDER_2.bin" #309043456 15:36:52 00:56:30
START 00:00:09

// Track 35
TRACK AUDIO
NO COPY
NO PRE_EMPHASIS
TWO_CHANNEL_AUDIO
FILE "TOMB_RAIDER_2.bin" #309043456 16:33:07 00:21:59
START 00:00:13

// Track 36
TRACK AUDIO
NO COPY
NO PRE_EMPHASIS
TWO_CHANNEL_AUDIO
FILE "TOMB_RAIDER_2.bin" #309043456 16:54:66 02:41:07
START 00:00:20

// Track 37
TRACK AUDIO
NO COPY
NO PRE_EMPHASIS
TWO_CHANNEL_AUDIO
FILE "TOMB_RAIDER_2.bin" #309043456 19:35:73 00:14:06
START 00:00:07

// Track 38
TRACK AUDIO
NO COPY
NO PRE_EMPHASIS
TWO_CHANNEL_AUDIO
FILE "TOMB_RAIDER_2.bin" #309043456 19:50:04 00:13:31
START 00:00:14

// Track 39
TRACK AUDIO
NO COPY
NO PRE_EMPHASIS
TWO_CHANNEL_AUDIO
FILE "TOMB_RAIDER_2.bin" #309043456 20:03:35 00:16:64
START 00:00:15

// Track 40
TRACK AUDIO
NO COPY
NO PRE_EMPHASIS
TWO_CHANNEL_AUDIO
FILE "TOMB_RAIDER_2.bin" #309043456 20:20:24 00:19:70
START 00:00:14

// Track 41
TRACK AUDIO
NO COPY
NO PRE_EMPHASIS
TWO_CHANNEL_AUDIO
FILE "TOMB_RAIDER_2.bin" #309043456 20:40:19 01:01:08
START 00:00:07

// Track 42
TRACK AUDIO
NO COPY
NO PRE_EMPHASIS
TWO_CHANNEL_AUDIO
FILE "TOMB_RAIDER_2.bin" #309043456 21:41:27 00:35:29
START 00:00:05

// Track 43
TRACK AUDIO
NO COPY
NO PRE_EMPHASIS
TWO_CHANNEL_AUDIO
FILE "TOMB_RAIDER_2.bin" #309043456 22:16:56 00:06:18
START 00:00:06

// Track 44
TRACK AUDIO
NO COPY
NO PRE_EMPHASIS
TWO_CHANNEL_AUDIO
FILE "TOMB_RAIDER_2.bin" #309043456 22:22:74 00:16:08
START 00:00:17

// Track 45
TRACK AUDIO
NO COPY
NO PRE_EMPHASIS
TWO_CHANNEL_AUDIO
FILE "TOMB_RAIDER_2.bin" #309043456 22:39:07 00:11:62
START 00:00:08

// Track 46
TRACK AUDIO
NO COPY
NO PRE_EMPHASIS
TWO_CHANNEL_AUDIO
FILE "TOMB_RAIDER_2.bin" #309043456 22:50:69 00:14:40
START 00:00:19

// Track 47
TRACK AUDIO
NO COPY
NO PRE_EMPHASIS
TWO_CHANNEL_AUDIO
FILE "TOMB_RAIDER_2.bin" #309043456 23:05:34 00:10:33
START 00:00:06

// Track 48
TRACK AUDIO
NO COPY
NO PRE_EMPHASIS
TWO_CHANNEL_AUDIO
FILE "TOMB_RAIDER_2.bin" #309043456 23:15:67 02:44:71
START 00:00:06

// Track 49
TRACK AUDIO
NO COPY
NO PRE_EMPHASIS
TWO_CHANNEL_AUDIO
FILE "TOMB_RAIDER_2.bin" #309043456 26:00:63 01:13:39
START 00:00:18

// Track 50
TRACK AUDIO
NO COPY
NO PRE_EMPHASIS
TWO_CHANNEL_AUDIO
FILE "TOMB_RAIDER_2.bin" #309043456 27:14:27 00:09:38
START 00:00:04

// Track 51
TRACK AUDIO
NO COPY
NO PRE_EMPHASIS
TWO_CHANNEL_AUDIO
FILE "TOMB_RAIDER_2.bin" #309043456 27:23:65 00:44:08
START 00:00:13

// Track 52
TRACK AUDIO
NO COPY
NO PRE_EMPHASIS
TWO_CHANNEL_AUDIO
FILE "TOMB_RAIDER_2.bin" #309043456 28:07:73 00:11:68
START 00:00:13

// Track 53
TRACK AUDIO
NO COPY
NO PRE_EMPHASIS
TWO_CHANNEL_AUDIO
FILE "TOMB_RAIDER_2.bin" #309043456 28:19:66 00:51:05
START 00:00:05

// Track 54
TRACK AUDIO
NO COPY
NO PRE_EMPHASIS
TWO_CHANNEL_AUDIO
FILE "TOMB_RAIDER_2.bin" #309043456 29:10:71 01:12:64
START 00:00:06

// Track 55
TRACK AUDIO
NO COPY
NO PRE_EMPHASIS
TWO_CHANNEL_AUDIO
FILE "TOMB_RAIDER_2.bin" #309043456 30:23:60 02:20:59
START 00:00:08

// Track 56
TRACK AUDIO
NO COPY
NO PRE_EMPHASIS
TWO_CHANNEL_AUDIO
FILE "TOMB_RAIDER_2.bin" #309043456 32:44:44 01:47:62
START 00:00:16

// Track 57
TRACK AUDIO
NO COPY
NO PRE_EMPHASIS
TWO_CHANNEL_AUDIO
FILE "TOMB_RAIDER_2.bin" #309043456 34:32:31 00:25:45
START 00:00:07

// Track 58
TRACK AUDIO
NO COPY
NO PRE_EMPHASIS
TWO_CHANNEL_AUDIO
FILE "TOMB_RAIDER_2.bin" #309043456 34:58:01 00:23:54
START 00:00:07

// Track 59
TRACK AUDIO
NO COPY
NO PRE_EMPHASIS
TWO_CHANNEL_AUDIO
FILE "TOMB_RAIDER_2.bin" #309043456 35:21:55 00:19:46
START 00:00:02

// Track 60
TRACK AUDIO
NO COPY
NO PRE_EMPHASIS
TWO_CHANNEL_AUDIO
FILE "TOMB_RAIDER_2.bin" #309043456 35:41:26 02:48:54
START 00:00:10

// Track 61
TRACK AUDIO
NO COPY
NO PRE_EMPHASIS
TWO_CHANNEL_AUDIO
FILE "TOMB_RAIDER_2.bin" #309043456 38:30:05 00:17:57
START 00:00:03
