CD_ROM

// Track 1
TRACK MODE1
NO COPY
DATAFILE "tombraider2.bin" 27:16:57 // length in bytes: 251406336

// Track 2
TRACK AUDIO
NO COPY
NO PRE_EMPHASIS
TWO_CHANNEL_AUDIO
SILENCE 00:02:00
FILE "tombraider2.bin" #251406336 0 01:27:37
START 00:02:00

// Track 3
TRACK AUDIO
NO COPY
NO PRE_EMPHASIS
TWO_CHANNEL_AUDIO
FILE "tombraider2.bin" #251406336 01:27:37 01:56:26

// Track 4
TRACK AUDIO
NO COPY
NO PRE_EMPHASIS
TWO_CHANNEL_AUDIO
FILE "tombraider2.bin" #251406336 03:23:63 02:17:62

// Track 5
TRACK AUDIO
NO COPY
NO PRE_EMPHASIS
TWO_CHANNEL_AUDIO
FILE "tombraider2.bin" #251406336 05:41:50 00:10:08

// Track 6
TRACK AUDIO
NO COPY
NO PRE_EMPHASIS
TWO_CHANNEL_AUDIO
FILE "tombraider2.bin" #251406336 05:51:58 00:09:37

// Track 7
TRACK AUDIO
NO COPY
NO PRE_EMPHASIS
TWO_CHANNEL_AUDIO
FILE "tombraider2.bin" #251406336 06:01:20 00:06:00

// Track 8
TRACK AUDIO
NO COPY
NO PRE_EMPHASIS
TWO_CHANNEL_AUDIO
FILE "tombraider2.bin" #251406336 06:07:20 00:06:00

// Track 9
TRACK AUDIO
NO COPY
NO PRE_EMPHASIS
TWO_CHANNEL_AUDIO
FILE "tombraider2.bin" #251406336 06:13:20 00:08:40

// Track 10
TRACK AUDIO
NO COPY
NO PRE_EMPHASIS
TWO_CHANNEL_AUDIO
FILE "tombraider2.bin" #251406336 06:21:60 00:14:17

// Track 11
TRACK AUDIO
NO COPY
NO PRE_EMPHASIS
TWO_CHANNEL_AUDIO
FILE "tombraider2.bin" #251406336 06:36:02 00:17:13

// Track 12
TRACK AUDIO
NO COPY
NO PRE_EMPHASIS
TWO_CHANNEL_AUDIO
FILE "tombraider2.bin" #251406336 06:53:15 00:11:33

// Track 13
TRACK AUDIO
NO COPY
NO PRE_EMPHASIS
TWO_CHANNEL_AUDIO
FILE "tombraider2.bin" #251406336 07:04:48 00:11:33

// Track 14
TRACK AUDIO
NO COPY
NO PRE_EMPHASIS
TWO_CHANNEL_AUDIO
FILE "tombraider2.bin" #251406336 07:16:06 00:06:00

// Track 15
TRACK AUDIO
NO COPY
NO PRE_EMPHASIS
TWO_CHANNEL_AUDIO
FILE "tombraider2.bin" #251406336 07:22:06 00:06:00

// Track 16
TRACK AUDIO
NO COPY
NO PRE_EMPHASIS
TWO_CHANNEL_AUDIO
FILE "tombraider2.bin" #251406336 07:28:06 00:06:69

// Track 17
TRACK AUDIO
NO COPY
NO PRE_EMPHASIS
TWO_CHANNEL_AUDIO
FILE "tombraider2.bin" #251406336 07:35:00 00:11:29

// Track 18
TRACK AUDIO
NO COPY
NO PRE_EMPHASIS
TWO_CHANNEL_AUDIO
FILE "tombraider2.bin" #251406336 07:46:29 00:09:02

// Track 19
TRACK AUDIO
NO COPY
NO PRE_EMPHASIS
TWO_CHANNEL_AUDIO
FILE "tombraider2.bin" #251406336 07:55:31 00:09:03

// Track 20
TRACK AUDIO
NO COPY
NO PRE_EMPHASIS
TWO_CHANNEL_AUDIO
FILE "tombraider2.bin" #251406336 08:04:34 00:06:00

// Track 21
TRACK AUDIO
NO COPY
NO PRE_EMPHASIS
TWO_CHANNEL_AUDIO
FILE "tombraider2.bin" #251406336 08:10:34 00:06:07

// Track 22
TRACK AUDIO
NO COPY
NO PRE_EMPHASIS
TWO_CHANNEL_AUDIO
FILE "tombraider2.bin" #251406336 08:16:41 00:06:00

// Track 23
TRACK AUDIO
NO COPY
NO PRE_EMPHASIS
TWO_CHANNEL_AUDIO
FILE "tombraider2.bin" #251406336 08:22:41 00:18:52

// Track 24
TRACK AUDIO
NO COPY
NO PRE_EMPHASIS
TWO_CHANNEL_AUDIO
FILE "tombraider2.bin" #251406336 08:41:18 00:11:01

// Track 25
TRACK AUDIO
NO COPY
NO PRE_EMPHASIS
TWO_CHANNEL_AUDIO
FILE "tombraider2.bin" #251406336 08:52:19 00:06:00

// Track 26
TRACK AUDIO
NO COPY
NO PRE_EMPHASIS
TWO_CHANNEL_AUDIO
FILE "tombraider2.bin" #251406336 08:58:19 00:53:67

// Track 27
TRACK AUDIO
NO COPY
NO PRE_EMPHASIS
TWO_CHANNEL_AUDIO
FILE "tombraider2.bin" #251406336 09:52:11 02:00:12

// Track 28
TRACK AUDIO
NO COPY
NO PRE_EMPHASIS
TWO_CHANNEL_AUDIO
FILE "tombraider2.bin" #251406336 11:52:23 01:59:15

// Track 29
TRACK AUDIO
NO COPY
NO PRE_EMPHASIS
TWO_CHANNEL_AUDIO
FILE "tombraider2.bin" #251406336 13:51:38 02:48:34

// Track 30
TRACK AUDIO
NO COPY
NO PRE_EMPHASIS
TWO_CHANNEL_AUDIO
FILE "tombraider2.bin" #251406336 16:39:72 03:05:51

// Track 31
TRACK AUDIO
NO COPY
NO PRE_EMPHASIS
TWO_CHANNEL_AUDIO
FILE "tombraider2.bin" #251406336 19:45:48 00:09:49

// Track 32
TRACK AUDIO
NO COPY
NO PRE_EMPHASIS
TWO_CHANNEL_AUDIO
FILE "tombraider2.bin" #251406336 19:55:22 00:06:46

// Track 33
TRACK AUDIO
NO COPY
NO PRE_EMPHASIS
TWO_CHANNEL_AUDIO
FILE "tombraider2.bin" #251406336 20:01:68 00:17:36

// Track 34
TRACK AUDIO
NO COPY
NO PRE_EMPHASIS
TWO_CHANNEL_AUDIO
FILE "tombraider2.bin" #251406336 20:19:29 00:56:20

// Track 35
TRACK AUDIO
NO COPY
NO PRE_EMPHASIS
TWO_CHANNEL_AUDIO
FILE "tombraider2.bin" #251406336 21:15:49 00:21:29

// Track 36
TRACK AUDIO
NO COPY
NO PRE_EMPHASIS
TWO_CHANNEL_AUDIO
FILE "tombraider2.bin" #251406336 21:37:03 02:40:44

// Track 37
TRACK AUDIO
NO COPY
NO PRE_EMPHASIS
TWO_CHANNEL_AUDIO
FILE "tombraider2.bin" #251406336 24:17:47 00:14:16

// Track 38
TRACK AUDIO
NO COPY
NO PRE_EMPHASIS
TWO_CHANNEL_AUDIO
FILE "tombraider2.bin" #251406336 24:31:63 00:13:32

// Track 39
TRACK AUDIO
NO COPY
NO PRE_EMPHASIS
TWO_CHANNEL_AUDIO
FILE "tombraider2.bin" #251406336 24:45:20 00:16:58

// Track 40
TRACK AUDIO
NO COPY
NO PRE_EMPHASIS
TWO_CHANNEL_AUDIO
FILE "tombraider2.bin" #251406336 25:02:03 00:19:49

// Track 41
TRACK AUDIO
NO COPY
NO PRE_EMPHASIS
TWO_CHANNEL_AUDIO
FILE "tombraider2.bin" #251406336 25:21:52 01:01:07

// Track 42
TRACK AUDIO
NO COPY
NO PRE_EMPHASIS
TWO_CHANNEL_AUDIO
FILE "tombraider2.bin" #251406336 26:22:59 00:35:08

// Track 43
TRACK AUDIO
NO COPY
NO PRE_EMPHASIS
TWO_CHANNEL_AUDIO
FILE "tombraider2.bin" #251406336 26:57:67 00:06:27

// Track 44
TRACK AUDIO
NO COPY
NO PRE_EMPHASIS
TWO_CHANNEL_AUDIO
FILE "tombraider2.bin" #251406336 27:04:19 00:15:67

// Track 45
TRACK AUDIO
NO COPY
NO PRE_EMPHASIS
TWO_CHANNEL_AUDIO
FILE "tombraider2.bin" #251406336 27:20:11 00:11:64

// Track 46
TRACK AUDIO
NO COPY
NO PRE_EMPHASIS
TWO_CHANNEL_AUDIO
FILE "tombraider2.bin" #251406336 27:32:00 00:13:73

// Track 47
TRACK AUDIO
NO COPY
NO PRE_EMPHASIS
TWO_CHANNEL_AUDIO
FILE "tombraider2.bin" #251406336 27:45:73 00:10:19

// Track 48
TRACK AUDIO
NO COPY
NO PRE_EMPHASIS
TWO_CHANNEL_AUDIO
FILE "tombraider2.bin" #251406336 27:56:17 02:44:47

// Track 49
TRACK AUDIO
NO COPY
NO PRE_EMPHASIS
TWO_CHANNEL_AUDIO
FILE "tombraider2.bin" #251406336 30:40:64 01:13:24

// Track 50
TRACK AUDIO
NO COPY
NO PRE_EMPHASIS
TWO_CHANNEL_AUDIO
FILE "tombraider2.bin" #251406336 31:54:13 00:09:17

// Track 51
TRACK AUDIO
NO COPY
NO PRE_EMPHASIS
TWO_CHANNEL_AUDIO
FILE "tombraider2.bin" #251406336 32:03:30 00:42:67

// Track 52
TRACK AUDIO
NO COPY
NO PRE_EMPHASIS
TWO_CHANNEL_AUDIO
FILE "tombraider2.bin" #251406336 32:46:22 00:11:61

// Track 53
TRACK AUDIO
NO COPY
NO PRE_EMPHASIS
TWO_CHANNEL_AUDIO
FILE "tombraider2.bin" #251406336 32:58:08 00:50:70

// Track 54
TRACK AUDIO
NO COPY
NO PRE_EMPHASIS
TWO_CHANNEL_AUDIO
FILE "tombraider2.bin" #251406336 33:49:03 03:31:45

// Track 55
TRACK AUDIO
NO COPY
NO PRE_EMPHASIS
TWO_CHANNEL_AUDIO
FILE "tombraider2.bin" #251406336 37:20:48 03:31:59

// Track 56
TRACK AUDIO
NO COPY
NO PRE_EMPHASIS
TWO_CHANNEL_AUDIO
FILE "tombraider2.bin" #251406336 40:52:32 01:47:08

// Track 57
TRACK AUDIO
NO COPY
NO PRE_EMPHASIS
TWO_CHANNEL_AUDIO
FILE "tombraider2.bin" #251406336 42:39:40 00:25:48

// Track 58
TRACK AUDIO
NO COPY
NO PRE_EMPHASIS
TWO_CHANNEL_AUDIO
FILE "tombraider2.bin" #251406336 43:05:13 00:23:51

// Track 59
TRACK AUDIO
NO COPY
NO PRE_EMPHASIS
TWO_CHANNEL_AUDIO
FILE "tombraider2.bin" #251406336 43:28:64 00:19:42

// Track 60
TRACK AUDIO
NO COPY
NO PRE_EMPHASIS
TWO_CHANNEL_AUDIO
FILE "tombraider2.bin" #251406336 43:48:31 02:47:06

// Track 61
TRACK AUDIO
NO COPY
NO PRE_EMPHASIS
TWO_CHANNEL_AUDIO
FILE "tombraider2.bin" #251406336 46:35:37 00:04:74
