CD_ROM_XA

// Track 1
TRACK MODE2_FORM_MIX
NO COPY
DATAFILE "TOMB_RAIDER_2.bin" 23:20:44 // length in bytes: 245382784

// Track 2
TRACK AUDIO
NO COPY
NO PRE_EMPHASIS
TWO_CHANNEL_AUDIO
SILENCE 00:02:00
FILE "TOMB_RAIDER_2.bin" #245382784 0 01:27:08
START 00:02:00

// Track 3
TRACK AUDIO
NO COPY
NO PRE_EMPHASIS
TWO_CHANNEL_AUDIO
FILE "TOMB_RAIDER_2.bin" #245382784 01:27:08 01:56:43
START 00:00:26

// Track 4
TRACK AUDIO
NO COPY
NO PRE_EMPHASIS
TWO_CHANNEL_AUDIO
FILE "TOMB_RAIDER_2.bin" #245382784 03:23:51 02:17:53
START 00:00:08

// Track 5
TRACK AUDIO
NO COPY
NO PRE_EMPHASIS
TWO_CHANNEL_AUDIO
FILE "TOMB_RAIDER_2.bin" #245382784 05:41:29 00:09:64
START 00:00:15

// Track 6
TRACK AUDIO
NO COPY
NO PRE_EMPHASIS
TWO_CHANNEL_AUDIO
FILE "TOMB_RAIDER_2.bin" #245382784 05:51:18 00:08:65
START 00:00:11

// Track 7
TRACK AUDIO
NO COPY
NO PRE_EMPHASIS
TWO_CHANNEL_AUDIO
FILE "TOMB_RAIDER_2.bin" #245382784 06:00:08 00:07:17
START 00:00:18

// Track 8
TRACK AUDIO
NO COPY
NO PRE_EMPHASIS
TWO_CHANNEL_AUDIO
FILE "TOMB_RAIDER_2.bin" #245382784 06:07:25 00:06:66
START 00:00:02

// Track 9
TRACK AUDIO
NO COPY
NO PRE_EMPHASIS
TWO_CHANNEL_AUDIO
FILE "TOMB_RAIDER_2.bin" #245382784 06:14:16 00:07:63
START 00:00:13

// Track 10
TRACK AUDIO
NO COPY
NO PRE_EMPHASIS
TWO_CHANNEL_AUDIO
FILE "TOMB_RAIDER_2.bin" #245382784 06:22:04 00:13:27
START 00:00:25

// Track 11
TRACK AUDIO
NO COPY
NO PRE_EMPHASIS
TWO_CHANNEL_AUDIO
FILE "TOMB_RAIDER_2.bin" #245382784 06:35:31 00:18:05
START 00:00:22

// Track 12
TRACK AUDIO
NO COPY
NO PRE_EMPHASIS
TWO_CHANNEL_AUDIO
FILE "TOMB_RAIDER_2.bin" #245382784 06:53:36 00:10:36
START 00:00:02

// Track 13
TRACK AUDIO
NO COPY
NO PRE_EMPHASIS
TWO_CHANNEL_AUDIO
FILE "TOMB_RAIDER_2.bin" #245382784 07:03:72 00:11:00
START 00:00:04

// Track 14
TRACK AUDIO
NO COPY
NO PRE_EMPHASIS
TWO_CHANNEL_AUDIO
FILE "TOMB_RAIDER_2.bin" #245382784 07:14:72 00:06:69
START 00:00:13

// Track 15
TRACK AUDIO
NO COPY
NO PRE_EMPHASIS
TWO_CHANNEL_AUDIO
FILE "TOMB_RAIDER_2.bin" #245382784 07:21:66 00:07:16
START 00:00:20

// Track 16
TRACK AUDIO
NO COPY
NO PRE_EMPHASIS
TWO_CHANNEL_AUDIO
FILE "TOMB_RAIDER_2.bin" #245382784 07:29:07 00:06:66
START 00:00:05

// Track 17
TRACK AUDIO
NO COPY
NO PRE_EMPHASIS
TWO_CHANNEL_AUDIO
FILE "TOMB_RAIDER_2.bin" #245382784 07:35:73 00:11:04
START 00:00:16

// Track 18
TRACK AUDIO
NO COPY
NO PRE_EMPHASIS
TWO_CHANNEL_AUDIO
FILE "TOMB_RAIDER_2.bin" #245382784 07:47:02 00:07:10
START 00:00:14

// Track 19
TRACK AUDIO
NO COPY
NO PRE_EMPHASIS
TWO_CHANNEL_AUDIO
FILE "TOMB_RAIDER_2.bin" #245382784 07:54:12 00:06:70
START 00:00:05

// Track 20
TRACK AUDIO
NO COPY
NO PRE_EMPHASIS
TWO_CHANNEL_AUDIO
FILE "TOMB_RAIDER_2.bin" #245382784 08:01:07 00:07:03
START 00:00:11

// Track 21
TRACK AUDIO
NO COPY
NO PRE_EMPHASIS
TWO_CHANNEL_AUDIO
FILE "TOMB_RAIDER_2.bin" #245382784 08:08:10 00:07:03
START 00:00:09

// Track 22
TRACK AUDIO
NO COPY
NO PRE_EMPHASIS
TWO_CHANNEL_AUDIO
FILE "TOMB_RAIDER_2.bin" #245382784 08:15:13 00:06:68
START 00:00:07

// Track 23
TRACK AUDIO
NO COPY
NO PRE_EMPHASIS
TWO_CHANNEL_AUDIO
FILE "TOMB_RAIDER_2.bin" #245382784 08:22:06 00:18:56
START 00:00:15

// Track 24
TRACK AUDIO
NO COPY
NO PRE_EMPHASIS
TWO_CHANNEL_AUDIO
FILE "TOMB_RAIDER_2.bin" #245382784 08:40:62 00:11:01
START 00:00:08

// Track 25
TRACK AUDIO
NO COPY
NO PRE_EMPHASIS
TWO_CHANNEL_AUDIO
FILE "TOMB_RAIDER_2.bin" #245382784 08:51:63 00:07:05
START 00:00:08

// Track 26
TRACK AUDIO
NO COPY
NO PRE_EMPHASIS
TWO_CHANNEL_AUDIO
FILE "TOMB_RAIDER_2.bin" #245382784 08:58:68 00:53:46
START 00:00:04

// Track 27
TRACK AUDIO
NO COPY
NO PRE_EMPHASIS
TWO_CHANNEL_AUDIO
FILE "TOMB_RAIDER_2.bin" #245382784 09:52:39 02:00:14
START 00:00:23

// Track 28
TRACK AUDIO
NO COPY
NO PRE_EMPHASIS
TWO_CHANNEL_AUDIO
FILE "TOMB_RAIDER_2.bin" #245382784 11:52:53 01:59:74
START 00:00:20

// Track 29
TRACK AUDIO
NO COPY
NO PRE_EMPHASIS
TWO_CHANNEL_AUDIO
FILE "TOMB_RAIDER_2.bin" #245382784 13:52:52 02:48:33
START 00:00:04

// Track 30
TRACK AUDIO
NO COPY
NO PRE_EMPHASIS
TWO_CHANNEL_AUDIO
FILE "TOMB_RAIDER_2.bin" #245382784 16:41:10 03:05:60
START 00:00:05

// Track 31
TRACK AUDIO
NO COPY
NO PRE_EMPHASIS
TWO_CHANNEL_AUDIO
FILE "TOMB_RAIDER_2.bin" #245382784 19:46:70 00:09:59
START 00:00:05

// Track 32
TRACK AUDIO
NO COPY
NO PRE_EMPHASIS
TWO_CHANNEL_AUDIO
FILE "TOMB_RAIDER_2.bin" #245382784 19:56:54 00:06:48
START 00:00:03

// Track 33
TRACK AUDIO
NO COPY
NO PRE_EMPHASIS
TWO_CHANNEL_AUDIO
FILE "TOMB_RAIDER_2.bin" #245382784 20:03:27 00:18:18
START 00:00:03

// Track 34
TRACK AUDIO
NO COPY
NO PRE_EMPHASIS
TWO_CHANNEL_AUDIO
FILE "TOMB_RAIDER_2.bin" #245382784 20:21:45 00:56:30
START 00:00:20

// Track 35
TRACK AUDIO
NO COPY
NO PRE_EMPHASIS
TWO_CHANNEL_AUDIO
FILE "TOMB_RAIDER_2.bin" #245382784 21:18:00 00:21:73
START 00:00:24

// Track 36
TRACK AUDIO
NO COPY
NO PRE_EMPHASIS
TWO_CHANNEL_AUDIO
FILE "TOMB_RAIDER_2.bin" #245382784 21:39:73 02:40:61
START 00:00:17

// Track 37
TRACK AUDIO
NO COPY
NO PRE_EMPHASIS
TWO_CHANNEL_AUDIO
FILE "TOMB_RAIDER_2.bin" #245382784 24:20:59 00:14:27
START 00:00:25

// Track 38
TRACK AUDIO
NO COPY
NO PRE_EMPHASIS
TWO_CHANNEL_AUDIO
FILE "TOMB_RAIDER_2.bin" #245382784 24:35:11 00:13:17
START 00:00:11

// Track 39
TRACK AUDIO
NO COPY
NO PRE_EMPHASIS
TWO_CHANNEL_AUDIO
FILE "TOMB_RAIDER_2.bin" #245382784 24:48:28 00:17:02
START 00:00:26

// Track 40
TRACK AUDIO
NO COPY
NO PRE_EMPHASIS
TWO_CHANNEL_AUDIO
FILE "TOMB_RAIDER_2.bin" #245382784 25:05:30 00:19:48
START 00:00:12

// Track 41
TRACK AUDIO
NO COPY
NO PRE_EMPHASIS
TWO_CHANNEL_AUDIO
FILE "TOMB_RAIDER_2.bin" #245382784 25:25:03 01:01:06
START 00:00:27

// Track 42
TRACK AUDIO
NO COPY
NO PRE_EMPHASIS
TWO_CHANNEL_AUDIO
FILE "TOMB_RAIDER_2.bin" #245382784 26:26:09 00:35:54
START 00:00:27

// Track 43
TRACK AUDIO
NO COPY
NO PRE_EMPHASIS
TWO_CHANNEL_AUDIO
FILE "TOMB_RAIDER_2.bin" #245382784 27:01:63 00:06:16
START 00:00:03

// Track 44
TRACK AUDIO
NO COPY
NO PRE_EMPHASIS
TWO_CHANNEL_AUDIO
FILE "TOMB_RAIDER_2.bin" #245382784 27:08:04 00:15:64
START 00:00:16

// Track 45
TRACK AUDIO
NO COPY
NO PRE_EMPHASIS
TWO_CHANNEL_AUDIO
FILE "TOMB_RAIDER_2.bin" #245382784 27:23:68 00:12:19
START 00:00:26

// Track 46
TRACK AUDIO
NO COPY
NO PRE_EMPHASIS
TWO_CHANNEL_AUDIO
FILE "TOMB_RAIDER_2.bin" #245382784 27:36:12 00:14:29
START 00:00:05

// Track 47
TRACK AUDIO
NO COPY
NO PRE_EMPHASIS
TWO_CHANNEL_AUDIO
FILE "TOMB_RAIDER_2.bin" #245382784 27:50:41 00:10:32
START 00:00:03

// Track 48
TRACK AUDIO
NO COPY
NO PRE_EMPHASIS
TWO_CHANNEL_AUDIO
FILE "TOMB_RAIDER_2.bin" #245382784 28:00:73 02:45:03
START 00:00:04

// Track 49
TRACK AUDIO
NO COPY
NO PRE_EMPHASIS
TWO_CHANNEL_AUDIO
FILE "TOMB_RAIDER_2.bin" #245382784 30:46:01 01:13:18
START 00:00:09

// Track 50
TRACK AUDIO
NO COPY
NO PRE_EMPHASIS
TWO_CHANNEL_AUDIO
FILE "TOMB_RAIDER_2.bin" #245382784 31:59:19 00:09:38
START 00:00:16

// Track 51
TRACK AUDIO
NO COPY
NO PRE_EMPHASIS
TWO_CHANNEL_AUDIO
FILE "TOMB_RAIDER_2.bin" #245382784 32:08:57 00:44:22
START 00:00:25

// Track 52
TRACK AUDIO
NO COPY
NO PRE_EMPHASIS
TWO_CHANNEL_AUDIO
FILE "TOMB_RAIDER_2.bin" #245382784 32:53:04 00:11:69
START 00:00:11

// Track 53
TRACK AUDIO
NO COPY
NO PRE_EMPHASIS
TWO_CHANNEL_AUDIO
FILE "TOMB_RAIDER_2.bin" #245382784 33:04:73 00:50:71
START 00:00:02

// Track 54
TRACK AUDIO
NO COPY
NO PRE_EMPHASIS
TWO_CHANNEL_AUDIO
FILE "TOMB_RAIDER_2.bin" #245382784 33:55:69 03:31:46
START 00:00:12

// Track 55
TRACK AUDIO
NO COPY
NO PRE_EMPHASIS
TWO_CHANNEL_AUDIO
FILE "TOMB_RAIDER_2.bin" #245382784 37:27:40 03:31:43
START 00:00:10

// Track 56
TRACK AUDIO
NO COPY
NO PRE_EMPHASIS
TWO_CHANNEL_AUDIO
FILE "TOMB_RAIDER_2.bin" #245382784 40:59:08 01:47:74
START 00:00:24

// Track 57
TRACK AUDIO
NO COPY
NO PRE_EMPHASIS
TWO_CHANNEL_AUDIO
FILE "TOMB_RAIDER_2.bin" #245382784 42:47:07 00:25:31
START 00:00:03

// Track 58
TRACK AUDIO
NO COPY
NO PRE_EMPHASIS
TWO_CHANNEL_AUDIO
FILE "TOMB_RAIDER_2.bin" #245382784 43:12:38 00:23:55
START 00:00:17

// Track 59
TRACK AUDIO
NO COPY
NO PRE_EMPHASIS
TWO_CHANNEL_AUDIO
FILE "TOMB_RAIDER_2.bin" #245382784 43:36:18 00:19:45
START 00:00:11

// Track 60
TRACK AUDIO
NO COPY
NO PRE_EMPHASIS
TWO_CHANNEL_AUDIO
FILE "TOMB_RAIDER_2.bin" #245382784 43:55:63 02:48:56
START 00:00:20

// Track 61
TRACK AUDIO
NO COPY
NO PRE_EMPHASIS
TWO_CHANNEL_AUDIO
FILE "TOMB_RAIDER_2.bin" #245382784 46:44:44 00:17:65
START 00:00:11
