CD_ROM

CATALOG "0000000000000"

// Track 1
TRACK MODE1
NO COPY
DATAFILE "1998-02-19-12-06-29-03.bin" 09:52:51 // length in bytes: 91035648

// Track 2
TRACK AUDIO
NO COPY
NO PRE_EMPHASIS
TWO_CHANNEL_AUDIO
SILENCE 00:02:00
FILE "1998-02-19-12-06-29-03.bin" #91035648 0 03:16:45
START 00:02:00

// Track 3
TRACK AUDIO
NO COPY
NO PRE_EMPHASIS
TWO_CHANNEL_AUDIO
FILE "1998-02-19-12-06-29-03.bin" #91035648 03:16:45 03:08:58

// Track 4
TRACK AUDIO
NO COPY
NO PRE_EMPHASIS
TWO_CHANNEL_AUDIO
FILE "1998-02-19-12-06-29-03.bin" #91035648 06:25:28 03:07:47
