CD_ROM_XA

// Track 1
TRACK MODE2_FORM_MIX
NO COPY
DATAFILE "TOMBRAIDER.bin" 34:15:36 // length in bytes: 360120096

// Track 2
TRACK AUDIO
NO COPY
NO PRE_EMPHASIS
TWO_CHANNEL_AUDIO
SILENCE 00:02:00
FILE "TOMBRAIDER.bin" #360120096 0 03:16:41
START 00:02:00

// Track 3
TRACK AUDIO
NO COPY
NO PRE_EMPHASIS
TWO_CHANNEL_AUDIO
FILE "TOMBRAIDER.bin" #360120096 03:16:41 01:03:64
START 00:00:02

// Track 4
TRACK AUDIO
NO COPY
NO PRE_EMPHASIS
TWO_CHANNEL_AUDIO
FILE "TOMBRAIDER.bin" #360120096 04:20:30 02:03:29
START 00:00:11

// Track 5
TRACK AUDIO
NO COPY
NO PRE_EMPHASIS
TWO_CHANNEL_AUDIO
FILE "TOMBRAIDER.bin" #360120096 06:23:59 02:00:29
START 00:00:21

// Track 6
TRACK AUDIO
NO COPY
NO PRE_EMPHASIS
TWO_CHANNEL_AUDIO
FILE "TOMBRAIDER.bin" #360120096 08:24:13 01:16:56
START 00:00:03

// Track 7
TRACK AUDIO
NO COPY
NO PRE_EMPHASIS
TWO_CHANNEL_AUDIO
FILE "TOMBRAIDER.bin" #360120096 09:40:69 00:55:71
START 00:00:21

// Track 8
TRACK AUDIO
NO COPY
NO PRE_EMPHASIS
TWO_CHANNEL_AUDIO
FILE "TOMBRAIDER.bin" #360120096 10:36:65 01:08:23
START 00:00:16

// Track 9
TRACK AUDIO
NO COPY
NO PRE_EMPHASIS
TWO_CHANNEL_AUDIO
FILE "TOMBRAIDER.bin" #360120096 11:45:13 00:40:04
START 00:00:12

// Track 10
TRACK AUDIO
NO COPY
NO PRE_EMPHASIS
TWO_CHANNEL_AUDIO
FILE "TOMBRAIDER.bin" #360120096 12:25:17 01:19:08
START 00:00:14

// Track 11
TRACK AUDIO
NO COPY
NO PRE_EMPHASIS
TWO_CHANNEL_AUDIO
FILE "TOMBRAIDER.bin" #360120096 13:44:25 00:08:57
START 00:00:27

// Track 12
TRACK AUDIO
NO COPY
NO PRE_EMPHASIS
TWO_CHANNEL_AUDIO
FILE "TOMBRAIDER.bin" #360120096 13:53:07 00:14:62
START 00:00:07

// Track 13
TRACK AUDIO
NO COPY
NO PRE_EMPHASIS
TWO_CHANNEL_AUDIO
FILE "TOMBRAIDER.bin" #360120096 14:07:69 00:06:74
START 00:00:19

// Track 14
TRACK AUDIO
NO COPY
NO PRE_EMPHASIS
TWO_CHANNEL_AUDIO
FILE "TOMBRAIDER.bin" #360120096 14:14:68 00:12:07
START 00:00:23

// Track 15
TRACK AUDIO
NO COPY
NO PRE_EMPHASIS
TWO_CHANNEL_AUDIO
FILE "TOMBRAIDER.bin" #360120096 14:27:00 00:11:21
START 00:00:21

// Track 16
TRACK AUDIO
NO COPY
NO PRE_EMPHASIS
TWO_CHANNEL_AUDIO
FILE "TOMBRAIDER.bin" #360120096 14:38:21 00:38:54
START 00:00:03

// Track 17
TRACK AUDIO
NO COPY
NO PRE_EMPHASIS
TWO_CHANNEL_AUDIO
FILE "TOMBRAIDER.bin" #360120096 15:17:00 00:42:62
START 00:00:12

// Track 18
TRACK AUDIO
NO COPY
NO PRE_EMPHASIS
TWO_CHANNEL_AUDIO
FILE "TOMBRAIDER.bin" #360120096 15:59:62 00:25:23
START 00:00:14

// Track 19
TRACK AUDIO
NO COPY
NO PRE_EMPHASIS
TWO_CHANNEL_AUDIO
FILE "TOMBRAIDER.bin" #360120096 16:25:10 01:28:48
START 00:00:15

// Track 20
TRACK AUDIO
NO COPY
NO PRE_EMPHASIS
TWO_CHANNEL_AUDIO
FILE "TOMBRAIDER.bin" #360120096 17:53:58 00:54:18
START 00:00:12

// Track 21
TRACK AUDIO
NO COPY
NO PRE_EMPHASIS
TWO_CHANNEL_AUDIO
FILE "TOMBRAIDER.bin" #360120096 18:48:01 00:41:14
START 00:00:11

// Track 22
TRACK AUDIO
NO COPY
NO PRE_EMPHASIS
TWO_CHANNEL_AUDIO
FILE "TOMBRAIDER.bin" #360120096 19:29:15 01:03:46
START 00:00:14

// Track 23
TRACK AUDIO
NO COPY
NO PRE_EMPHASIS
TWO_CHANNEL_AUDIO
FILE "TOMBRAIDER.bin" #360120096 20:32:61 00:57:32
START 00:00:06

// Track 24
TRACK AUDIO
NO COPY
NO PRE_EMPHASIS
TWO_CHANNEL_AUDIO
FILE "TOMBRAIDER.bin" #360120096 21:30:18 00:15:38
START 00:00:18

// Track 25
TRACK AUDIO
NO COPY
NO PRE_EMPHASIS
TWO_CHANNEL_AUDIO
FILE "TOMBRAIDER.bin" #360120096 21:45:56 00:36:50
START 00:00:08

// Track 26
TRACK AUDIO
NO COPY
NO PRE_EMPHASIS
TWO_CHANNEL_AUDIO
FILE "TOMBRAIDER.bin" #360120096 22:22:31 00:07:09
START 00:00:21

// Track 27
TRACK AUDIO
NO COPY
NO PRE_EMPHASIS
TWO_CHANNEL_AUDIO
FILE "TOMBRAIDER.bin" #360120096 22:29:40 00:06:71
START 00:00:13

// Track 28
TRACK AUDIO
NO COPY
NO PRE_EMPHASIS
TWO_CHANNEL_AUDIO
FILE "TOMBRAIDER.bin" #360120096 22:36:36 00:06:67
START 00:00:18

// Track 29
TRACK AUDIO
NO COPY
NO PRE_EMPHASIS
TWO_CHANNEL_AUDIO
FILE "TOMBRAIDER.bin" #360120096 22:43:28 00:07:17
START 00:00:26

// Track 30
TRACK AUDIO
NO COPY
NO PRE_EMPHASIS
TWO_CHANNEL_AUDIO
FILE "TOMBRAIDER.bin" #360120096 22:50:45 00:07:73
START 00:00:10

// Track 31
TRACK AUDIO
NO COPY
NO PRE_EMPHASIS
TWO_CHANNEL_AUDIO
FILE "TOMBRAIDER.bin" #360120096 22:58:43 00:07:02
START 00:00:10

// Track 32
TRACK AUDIO
NO COPY
NO PRE_EMPHASIS
TWO_CHANNEL_AUDIO
FILE "TOMBRAIDER.bin" #360120096 23:05:45 00:09:20
START 00:00:09

// Track 33
TRACK AUDIO
NO COPY
NO PRE_EMPHASIS
TWO_CHANNEL_AUDIO
FILE "TOMBRAIDER.bin" #360120096 23:14:65 00:09:53
START 00:00:27

// Track 34
TRACK AUDIO
NO COPY
NO PRE_EMPHASIS
TWO_CHANNEL_AUDIO
FILE "TOMBRAIDER.bin" #360120096 23:24:43 00:07:61
START 00:00:16

// Track 35
TRACK AUDIO
NO COPY
NO PRE_EMPHASIS
TWO_CHANNEL_AUDIO
FILE "TOMBRAIDER.bin" #360120096 23:32:29 00:07:03
START 00:00:02

// Track 36
TRACK AUDIO
NO COPY
NO PRE_EMPHASIS
TWO_CHANNEL_AUDIO
FILE "TOMBRAIDER.bin" #360120096 23:39:32 00:16:61
START 00:00:13

// Track 37
TRACK AUDIO
NO COPY
NO PRE_EMPHASIS
TWO_CHANNEL_AUDIO
FILE "TOMBRAIDER.bin" #360120096 23:56:18 00:07:21
START 00:00:23

// Track 38
TRACK AUDIO
NO COPY
NO PRE_EMPHASIS
TWO_CHANNEL_AUDIO
FILE "TOMBRAIDER.bin" #360120096 24:03:39 00:06:65
START 00:00:03

// Track 39
TRACK AUDIO
NO COPY
NO PRE_EMPHASIS
TWO_CHANNEL_AUDIO
FILE "TOMBRAIDER.bin" #360120096 24:10:29 00:16:10
START 00:00:14

// Track 40
TRACK AUDIO
NO COPY
NO PRE_EMPHASIS
TWO_CHANNEL_AUDIO
FILE "TOMBRAIDER.bin" #360120096 24:26:39 00:10:32
START 00:00:10

// Track 41
TRACK AUDIO
NO COPY
NO PRE_EMPHASIS
TWO_CHANNEL_AUDIO
FILE "TOMBRAIDER.bin" #360120096 24:36:71 00:07:10
START 00:00:18

// Track 42
TRACK AUDIO
NO COPY
NO PRE_EMPHASIS
TWO_CHANNEL_AUDIO
FILE "TOMBRAIDER.bin" #360120096 24:44:06 00:06:68
START 00:00:09

// Track 43
TRACK AUDIO
NO COPY
NO PRE_EMPHASIS
TWO_CHANNEL_AUDIO
FILE "TOMBRAIDER.bin" #360120096 24:50:74 00:09:22
START 00:00:16

// Track 44
TRACK AUDIO
NO COPY
NO PRE_EMPHASIS
TWO_CHANNEL_AUDIO
FILE "TOMBRAIDER.bin" #360120096 25:00:21 00:08:12
START 00:00:07

// Track 45
TRACK AUDIO
NO COPY
NO PRE_EMPHASIS
TWO_CHANNEL_AUDIO
FILE "TOMBRAIDER.bin" #360120096 25:08:33 00:10:02
START 00:00:19

// Track 46
TRACK AUDIO
NO COPY
NO PRE_EMPHASIS
TWO_CHANNEL_AUDIO
FILE "TOMBRAIDER.bin" #360120096 25:18:35 00:06:68
START 00:00:08

// Track 47
TRACK AUDIO
NO COPY
NO PRE_EMPHASIS
TWO_CHANNEL_AUDIO
FILE "TOMBRAIDER.bin" #360120096 25:25:28 00:07:05
START 00:00:16

// Track 48
TRACK AUDIO
NO COPY
NO PRE_EMPHASIS
TWO_CHANNEL_AUDIO
FILE "TOMBRAIDER.bin" #360120096 25:32:33 00:07:01
START 00:00:12

// Track 49
TRACK AUDIO
NO COPY
NO PRE_EMPHASIS
TWO_CHANNEL_AUDIO
FILE "TOMBRAIDER.bin" #360120096 25:39:34 00:15:71
START 00:00:12

// Track 50
TRACK AUDIO
NO COPY
NO PRE_EMPHASIS
TWO_CHANNEL_AUDIO
FILE "TOMBRAIDER.bin" #360120096 25:55:30 00:06:68
START 00:00:12

// Track 51
TRACK AUDIO
NO COPY
NO PRE_EMPHASIS
TWO_CHANNEL_AUDIO
FILE "TOMBRAIDER.bin" #360120096 26:02:23 00:07:15
START 00:00:19

// Track 52
TRACK AUDIO
NO COPY
NO PRE_EMPHASIS
TWO_CHANNEL_AUDIO
FILE "TOMBRAIDER.bin" #360120096 26:09:38 00:06:64
START 00:00:04

// Track 53
TRACK AUDIO
NO COPY
NO PRE_EMPHASIS
TWO_CHANNEL_AUDIO
FILE "TOMBRAIDER.bin" #360120096 26:16:27 00:09:10
START 00:00:16

// Track 54
TRACK AUDIO
NO COPY
NO PRE_EMPHASIS
TWO_CHANNEL_AUDIO
FILE "TOMBRAIDER.bin" #360120096 26:25:37 00:07:16
START 00:00:26

// Track 55
TRACK AUDIO
NO COPY
NO PRE_EMPHASIS
TWO_CHANNEL_AUDIO
FILE "TOMBRAIDER.bin" #360120096 26:32:53 00:09:53
START 00:00:11

// Track 56
TRACK AUDIO
NO COPY
NO PRE_EMPHASIS
TWO_CHANNEL_AUDIO
FILE "TOMBRAIDER.bin" #360120096 26:42:31 00:06:62
START 00:00:12

// Track 57
TRACK AUDIO
NO COPY
NO PRE_EMPHASIS
TWO_CHANNEL_AUDIO
FILE "TOMBRAIDER.bin" #360120096 26:49:18 03:17:26
START 00:00:26
