CD_ROM

CATALOG "0000000000000"

// Track 1
TRACK MODE1
NO COPY
DATAFILE "TOMB3.bin" 60:02:54 // length in bytes: 553377792

// Track 2
TRACK AUDIO
NO COPY
NO PRE_EMPHASIS
TWO_CHANNEL_AUDIO
SILENCE 00:02:00
FILE "TOMB3.bin" #553377792 0 15:28:11
START 00:02:00

// Track 3
TRACK AUDIO
NO COPY
NO PRE_EMPHASIS
TWO_CHANNEL_AUDIO
FILE "TOMB3.bin" #553377792 15:28:11 00:23:10
START 00:00:10

// Track 4
TRACK MODE1
NO COPY
ZERO MODE1 00:02:00
DATAFILE "TOMB3.bin" #721183584 00:14:05 // length in bytes: 2160640
START 00:02:00
