File	Size	Timestamp	MD5 Hash
ati/dec130.dll	98816	1999-04-06 16:59:34 +0200	a3a3379012c60dd882760cc47c5cbe5f
ati/edec.dll	117248	1999-04-06 16:59:34 +0200	385a43ba3173c0617c3ce3f3ae0c302c
ati/filedesc.des	101	1999-04-06 16:59:34 +0200	662e2e743b7de21c5e4afff72b9de77a
ati/readme.txt	627	1999-04-06 16:59:34 +0200	72d5af090a3de8541383e2e28a637c3b
ati/tombati.exe	396800	1999-04-06 16:59:34 +0200	e4b95c0479d7256af56b8a9897ed4b13
ati/tombraider.txt	136	1999-04-06 16:59:34 +0200	db938faf8b8f1db21b19c35fdb169044
ati/winplay.dll	60416	1999-04-06 16:59:34 +0200	79aae3ef04a2dacd41e7835a6ebb6559
ati/winsdec.dll	89600	1999-04-06 16:59:34 +0200	3e81974ab0a22b640b5a52b41d6a3913
ati/winstr.dll	80896	1999-04-06 16:59:34 +0200	f836f9c9d1fc9a023056cf19aa8d34a5
lisezmoi.txt	959	1999-12-09 19:53:34 +0100	3253b96d2ef92fe85d6c7676d6f7c461
