{
	"source":           "https://archive.org/download/Redump.orgSonyPlayStation-NTSC-U-T",
	"disc_label":       "TOMBRAIDER",
	"disc_track1_size":  308826208,
	"disc_tracks":       57,
	"latest_timestamp": "1998-02-11 05:52:22 +0100  	psx.exe"
}
