CD_ROM

CATALOG "0000000000000"

// Track 1
TRACK MODE1
NO COPY
DATAFILE "TOMBRAIDERS.bin" 21:02:08 // length in bytes: 193859584

// Track 2
TRACK AUDIO
NO COPY
NO PRE_EMPHASIS
TWO_CHANNEL_AUDIO
SILENCE 00:02:00
FILE "TOMBRAIDERS.bin" #193859584 0 03:16:17
START 00:02:00

// Track 3
TRACK AUDIO
NO COPY
NO PRE_EMPHASIS
TWO_CHANNEL_AUDIO
FILE "TOMBRAIDERS.bin" #193859584 03:16:17 01:04:15
START 00:00:26

// Track 4
TRACK AUDIO
NO COPY
NO PRE_EMPHASIS
TWO_CHANNEL_AUDIO
FILE "TOMBRAIDERS.bin" #193859584 04:20:32 02:03:29
START 00:00:09

// Track 5
TRACK AUDIO
NO COPY
NO PRE_EMPHASIS
TWO_CHANNEL_AUDIO
FILE "TOMBRAIDERS.bin" #193859584 06:23:61 02:00:14
START 00:00:19

// Track 6
TRACK AUDIO
NO COPY
NO PRE_EMPHASIS
TWO_CHANNEL_AUDIO
FILE "TOMBRAIDERS.bin" #193859584 08:24:00 01:16:71
START 00:00:16

// Track 7
TRACK AUDIO
NO COPY
NO PRE_EMPHASIS
TWO_CHANNEL_AUDIO
FILE "TOMBRAIDERS.bin" #193859584 09:40:71 00:55:71
START 00:00:19

// Track 8
TRACK AUDIO
NO COPY
NO PRE_EMPHASIS
TWO_CHANNEL_AUDIO
FILE "TOMBRAIDERS.bin" #193859584 10:36:67 01:08:23
START 00:00:14

// Track 9
TRACK AUDIO
NO COPY
NO PRE_EMPHASIS
TWO_CHANNEL_AUDIO
FILE "TOMBRAIDERS.bin" #193859584 11:45:15 00:40:04
START 00:00:10

// Track 10
TRACK AUDIO
NO COPY
NO PRE_EMPHASIS
TWO_CHANNEL_AUDIO
FILE "TOMBRAIDERS.bin" #193859584 12:25:19 01:19:08
START 00:00:12

// Track 11
TRACK AUDIO
NO COPY
NO PRE_EMPHASIS
TWO_CHANNEL_AUDIO
FILE "TOMBRAIDERS.bin" #193859584 13:44:27 00:08:57
START 00:00:25

// Track 12
TRACK AUDIO
NO COPY
NO PRE_EMPHASIS
TWO_CHANNEL_AUDIO
FILE "TOMBRAIDERS.bin" #193859584 13:53:09 00:14:62
START 00:00:05

// Track 13
TRACK AUDIO
NO COPY
NO PRE_EMPHASIS
TWO_CHANNEL_AUDIO
FILE "TOMBRAIDERS.bin" #193859584 14:07:71 00:06:74
START 00:00:17

// Track 14
TRACK AUDIO
NO COPY
NO PRE_EMPHASIS
TWO_CHANNEL_AUDIO
FILE "TOMBRAIDERS.bin" #193859584 14:14:70 00:12:07
START 00:00:21

// Track 15
TRACK AUDIO
NO COPY
NO PRE_EMPHASIS
TWO_CHANNEL_AUDIO
FILE "TOMBRAIDERS.bin" #193859584 14:27:02 00:11:05
START 00:00:19

// Track 16
TRACK AUDIO
NO COPY
NO PRE_EMPHASIS
TWO_CHANNEL_AUDIO
FILE "TOMBRAIDERS.bin" #193859584 14:38:07 00:38:70
START 00:00:17

// Track 17
TRACK AUDIO
NO COPY
NO PRE_EMPHASIS
TWO_CHANNEL_AUDIO
FILE "TOMBRAIDERS.bin" #193859584 15:17:02 00:42:62
START 00:00:10

// Track 18
TRACK AUDIO
NO COPY
NO PRE_EMPHASIS
TWO_CHANNEL_AUDIO
FILE "TOMBRAIDERS.bin" #193859584 15:59:64 00:25:23
START 00:00:12

// Track 19
TRACK AUDIO
NO COPY
NO PRE_EMPHASIS
TWO_CHANNEL_AUDIO
FILE "TOMBRAIDERS.bin" #193859584 16:25:12 01:28:48
START 00:00:13

// Track 20
TRACK AUDIO
NO COPY
NO PRE_EMPHASIS
TWO_CHANNEL_AUDIO
FILE "TOMBRAIDERS.bin" #193859584 17:53:60 00:54:18
START 00:00:10

// Track 21
TRACK AUDIO
NO COPY
NO PRE_EMPHASIS
TWO_CHANNEL_AUDIO
FILE "TOMBRAIDERS.bin" #193859584 18:48:03 00:41:14
START 00:00:09

// Track 22
TRACK AUDIO
NO COPY
NO PRE_EMPHASIS
TWO_CHANNEL_AUDIO
FILE "TOMBRAIDERS.bin" #193859584 19:29:17 01:03:34
START 00:00:12

// Track 23
TRACK AUDIO
NO COPY
NO PRE_EMPHASIS
TWO_CHANNEL_AUDIO
FILE "TOMBRAIDERS.bin" #193859584 20:32:51 00:55:73
START 00:00:10

// Track 24
TRACK AUDIO
NO COPY
NO PRE_EMPHASIS
TWO_CHANNEL_AUDIO
FILE "TOMBRAIDERS.bin" #193859584 21:28:49 00:15:33
START 00:00:14

// Track 25
TRACK AUDIO
NO COPY
NO PRE_EMPHASIS
TWO_CHANNEL_AUDIO
FILE "TOMBRAIDERS.bin" #193859584 21:44:07 00:35:63
START 00:00:09

// Track 26
TRACK AUDIO
NO COPY
NO PRE_EMPHASIS
TWO_CHANNEL_AUDIO
FILE "TOMBRAIDERS.bin" #193859584 22:19:70 00:07:07
START 00:00:14

// Track 27
TRACK AUDIO
NO COPY
NO PRE_EMPHASIS
TWO_CHANNEL_AUDIO
FILE "TOMBRAIDERS.bin" #193859584 22:27:02 00:06:70
START 00:00:07

// Track 28
TRACK AUDIO
NO COPY
NO PRE_EMPHASIS
TWO_CHANNEL_AUDIO
FILE "TOMBRAIDERS.bin" #193859584 22:33:72 00:07:03
START 00:00:13

// Track 29
TRACK AUDIO
NO COPY
NO PRE_EMPHASIS
TWO_CHANNEL_AUDIO
FILE "TOMBRAIDERS.bin" #193859584 22:41:00 00:08:22
START 00:00:11

// Track 30
TRACK AUDIO
NO COPY
NO PRE_EMPHASIS
TWO_CHANNEL_AUDIO
FILE "TOMBRAIDERS.bin" #193859584 22:49:22 00:08:33
START 00:00:02

// Track 31
TRACK AUDIO
NO COPY
NO PRE_EMPHASIS
TWO_CHANNEL_AUDIO
FILE "TOMBRAIDERS.bin" #193859584 22:57:55 00:07:71
START 00:00:24

// Track 32
TRACK AUDIO
NO COPY
NO PRE_EMPHASIS
TWO_CHANNEL_AUDIO
FILE "TOMBRAIDERS.bin" #193859584 23:05:51 00:06:67
START 00:00:18

// Track 33
TRACK AUDIO
NO COPY
NO PRE_EMPHASIS
TWO_CHANNEL_AUDIO
FILE "TOMBRAIDERS.bin" #193859584 23:12:43 00:07:15
START 00:00:26

// Track 34
TRACK AUDIO
NO COPY
NO PRE_EMPHASIS
TWO_CHANNEL_AUDIO
FILE "TOMBRAIDERS.bin" #193859584 23:19:58 00:06:63
START 00:00:11

// Track 35
TRACK AUDIO
NO COPY
NO PRE_EMPHASIS
TWO_CHANNEL_AUDIO
FILE "TOMBRAIDERS.bin" #193859584 23:26:46 00:07:08
START 00:00:24

// Track 36
TRACK AUDIO
NO COPY
NO PRE_EMPHASIS
TWO_CHANNEL_AUDIO
FILE "TOMBRAIDERS.bin" #193859584 23:33:54 00:13:59
START 00:00:16

// Track 37
TRACK AUDIO
NO COPY
NO PRE_EMPHASIS
TWO_CHANNEL_AUDIO
FILE "TOMBRAIDERS.bin" #193859584 23:47:38 00:06:70
START 00:00:11

// Track 38
TRACK AUDIO
NO COPY
NO PRE_EMPHASIS
TWO_CHANNEL_AUDIO
FILE "TOMBRAIDERS.bin" #193859584 23:54:33 00:06:68
START 00:00:17

// Track 39
TRACK AUDIO
NO COPY
NO PRE_EMPHASIS
TWO_CHANNEL_AUDIO
FILE "TOMBRAIDERS.bin" #193859584 24:01:26 00:18:66
START 00:00:24

// Track 40
TRACK AUDIO
NO COPY
NO PRE_EMPHASIS
TWO_CHANNEL_AUDIO
FILE "TOMBRAIDERS.bin" #193859584 24:20:17 00:13:06
START 00:00:09

// Track 41
TRACK AUDIO
NO COPY
NO PRE_EMPHASIS
TWO_CHANNEL_AUDIO
FILE "TOMBRAIDERS.bin" #193859584 24:33:23 00:06:67
START 00:00:07

// Track 42
TRACK AUDIO
NO COPY
NO PRE_EMPHASIS
TWO_CHANNEL_AUDIO
FILE "TOMBRAIDERS.bin" #193859584 24:40:15 00:07:11
START 00:00:15

// Track 43
TRACK AUDIO
NO COPY
NO PRE_EMPHASIS
TWO_CHANNEL_AUDIO
FILE "TOMBRAIDERS.bin" #193859584 24:47:26 00:14:31
START 00:00:05

// Track 44
TRACK AUDIO
NO COPY
NO PRE_EMPHASIS
TWO_CHANNEL_AUDIO
FILE "TOMBRAIDERS.bin" #193859584 25:01:57 00:08:45
START 00:00:10

// Track 45
TRACK AUDIO
NO COPY
NO PRE_EMPHASIS
TWO_CHANNEL_AUDIO
FILE "TOMBRAIDERS.bin" #193859584 25:10:27 00:11:41
START 00:00:19

// Track 46
TRACK AUDIO
NO COPY
NO PRE_EMPHASIS
TWO_CHANNEL_AUDIO
FILE "TOMBRAIDERS.bin" #193859584 25:21:68 00:07:09
START 00:00:12

// Track 47
TRACK AUDIO
NO COPY
NO PRE_EMPHASIS
TWO_CHANNEL_AUDIO
FILE "TOMBRAIDERS.bin" #193859584 25:29:02 00:07:01
START 00:00:03

// Track 48
TRACK AUDIO
NO COPY
NO PRE_EMPHASIS
TWO_CHANNEL_AUDIO
FILE "TOMBRAIDERS.bin" #193859584 25:36:03 00:06:68
START 00:00:06

// Track 49
TRACK AUDIO
NO COPY
NO PRE_EMPHASIS
TWO_CHANNEL_AUDIO
FILE "TOMBRAIDERS.bin" #193859584 25:42:71 00:19:39
START 00:00:13

// Track 50
TRACK AUDIO
NO COPY
NO PRE_EMPHASIS
TWO_CHANNEL_AUDIO
FILE "TOMBRAIDERS.bin" #193859584 26:02:35 00:07:07
START 00:00:25

// Track 51
TRACK AUDIO
NO COPY
NO PRE_EMPHASIS
TWO_CHANNEL_AUDIO
FILE "TOMBRAIDERS.bin" #193859584 26:09:42 00:06:72
START 00:00:18

// Track 52
TRACK AUDIO
NO COPY
NO PRE_EMPHASIS
TWO_CHANNEL_AUDIO
FILE "TOMBRAIDERS.bin" #193859584 26:16:39 00:07:17
START 00:00:22

// Track 53
TRACK AUDIO
NO COPY
NO PRE_EMPHASIS
TWO_CHANNEL_AUDIO
FILE "TOMBRAIDERS.bin" #193859584 26:23:56 00:07:19
START 00:00:05

// Track 54
TRACK AUDIO
NO COPY
NO PRE_EMPHASIS
TWO_CHANNEL_AUDIO
FILE "TOMBRAIDERS.bin" #193859584 26:31:00 00:06:68
START 00:00:17

// Track 55
TRACK AUDIO
NO COPY
NO PRE_EMPHASIS
TWO_CHANNEL_AUDIO
FILE "TOMBRAIDERS.bin" #193859584 26:37:68 00:19:11
START 00:00:24

// Track 56
TRACK AUDIO
NO COPY
NO PRE_EMPHASIS
TWO_CHANNEL_AUDIO
FILE "TOMBRAIDERS.bin" #193859584 26:57:04 00:07:07
START 00:00:24

// Track 57
TRACK AUDIO
NO COPY
NO PRE_EMPHASIS
TWO_CHANNEL_AUDIO
FILE "TOMBRAIDERS.bin" #193859584 27:04:11 00:15:25
START 00:00:17
