CD_ROM

// Track 1
TRACK MODE1
NO COPY
DATAFILE "TOMBRAIDER2.bin" 30:18:43 // length in bytes: 279332864

// Track 2
TRACK AUDIO
NO COPY
NO PRE_EMPHASIS
TWO_CHANNEL_AUDIO
SILENCE 00:02:00
FILE "TOMBRAIDER2.bin" #279332864 0 01:27:37
START 00:02:00

// Track 3
TRACK AUDIO
NO COPY
NO PRE_EMPHASIS
TWO_CHANNEL_AUDIO
FILE "TOMBRAIDER2.bin" #279332864 01:27:37 01:56:29
START 00:00:04

// Track 4
TRACK AUDIO
NO COPY
NO PRE_EMPHASIS
TWO_CHANNEL_AUDIO
FILE "TOMBRAIDER2.bin" #279332864 03:23:66 02:17:67
START 00:00:06

// Track 5
TRACK AUDIO
NO COPY
NO PRE_EMPHASIS
TWO_CHANNEL_AUDIO
FILE "TOMBRAIDER2.bin" #279332864 05:41:58 00:10:12
START 00:00:06

// Track 6
TRACK AUDIO
NO COPY
NO PRE_EMPHASIS
TWO_CHANNEL_AUDIO
FILE "TOMBRAIDER2.bin" #279332864 05:51:70 00:09:39
START 00:00:07

// Track 7
TRACK AUDIO
NO COPY
NO PRE_EMPHASIS
TWO_CHANNEL_AUDIO
FILE "TOMBRAIDER2.bin" #279332864 06:01:34 00:06:02
START 00:00:09

// Track 8
TRACK AUDIO
NO COPY
NO PRE_EMPHASIS
TWO_CHANNEL_AUDIO
FILE "TOMBRAIDER2.bin" #279332864 06:07:36 00:05:68
START 00:00:09

// Track 9
TRACK AUDIO
NO COPY
NO PRE_EMPHASIS
TWO_CHANNEL_AUDIO
FILE "TOMBRAIDER2.bin" #279332864 06:13:29 00:08:37
START 00:00:16

// Track 10
TRACK AUDIO
NO COPY
NO PRE_EMPHASIS
TWO_CHANNEL_AUDIO
FILE "TOMBRAIDER2.bin" #279332864 06:21:66 00:14:26
START 00:00:24

// Track 11
TRACK AUDIO
NO COPY
NO PRE_EMPHASIS
TWO_CHANNEL_AUDIO
FILE "TOMBRAIDER2.bin" #279332864 06:36:17 00:17:16
START 00:00:20

// Track 12
TRACK AUDIO
NO COPY
NO PRE_EMPHASIS
TWO_CHANNEL_AUDIO
FILE "TOMBRAIDER2.bin" #279332864 06:53:33 00:11:50
START 00:00:22

// Track 13
TRACK AUDIO
NO COPY
NO PRE_EMPHASIS
TWO_CHANNEL_AUDIO
FILE "TOMBRAIDER2.bin" #279332864 07:05:08 00:11:25
START 00:00:10

// Track 14
TRACK AUDIO
NO COPY
NO PRE_EMPHASIS
TWO_CHANNEL_AUDIO
FILE "TOMBRAIDER2.bin" #279332864 07:16:33 00:06:11
START 00:00:23

// Track 15
TRACK AUDIO
NO COPY
NO PRE_EMPHASIS
TWO_CHANNEL_AUDIO
FILE "TOMBRAIDER2.bin" #279332864 07:22:44 00:05:60
START 00:00:12

// Track 16
TRACK AUDIO
NO COPY
NO PRE_EMPHASIS
TWO_CHANNEL_AUDIO
FILE "TOMBRAIDER2.bin" #279332864 07:28:29 00:07:17
START 00:00:27

// Track 17
TRACK AUDIO
NO COPY
NO PRE_EMPHASIS
TWO_CHANNEL_AUDIO
FILE "TOMBRAIDER2.bin" #279332864 07:35:46 00:11:31
START 00:00:09

// Track 18
TRACK AUDIO
NO COPY
NO PRE_EMPHASIS
TWO_CHANNEL_AUDIO
FILE "TOMBRAIDER2.bin" #279332864 07:47:02 00:05:71
START 00:00:12

// Track 19
TRACK AUDIO
NO COPY
NO PRE_EMPHASIS
TWO_CHANNEL_AUDIO
FILE "TOMBRAIDER2.bin" #279332864 07:52:73 00:06:13
START 00:00:16

// Track 20
TRACK AUDIO
NO COPY
NO PRE_EMPHASIS
TWO_CHANNEL_AUDIO
FILE "TOMBRAIDER2.bin" #279332864 07:59:11 00:05:60
START 00:00:03

// Track 21
TRACK AUDIO
NO COPY
NO PRE_EMPHASIS
TWO_CHANNEL_AUDIO
FILE "TOMBRAIDER2.bin" #279332864 08:04:71 00:06:08
START 00:00:18

// Track 22
TRACK AUDIO
NO COPY
NO PRE_EMPHASIS
TWO_CHANNEL_AUDIO
FILE "TOMBRAIDER2.bin" #279332864 08:11:04 00:06:11
START 00:00:21

// Track 23
TRACK AUDIO
NO COPY
NO PRE_EMPHASIS
TWO_CHANNEL_AUDIO
FILE "TOMBRAIDER2.bin" #279332864 08:17:15 00:18:53
START 00:00:10

// Track 24
TRACK AUDIO
NO COPY
NO PRE_EMPHASIS
TWO_CHANNEL_AUDIO
FILE "TOMBRAIDER2.bin" #279332864 08:35:68 00:11:06
START 00:00:13

// Track 25
TRACK AUDIO
NO COPY
NO PRE_EMPHASIS
TWO_CHANNEL_AUDIO
FILE "TOMBRAIDER2.bin" #279332864 08:46:74 00:05:74
START 00:00:12

// Track 26
TRACK AUDIO
NO COPY
NO PRE_EMPHASIS
TWO_CHANNEL_AUDIO
FILE "TOMBRAIDER2.bin" #279332864 08:52:73 00:54:06
START 00:00:13

// Track 27
TRACK AUDIO
NO COPY
NO PRE_EMPHASIS
TWO_CHANNEL_AUDIO
FILE "TOMBRAIDER2.bin" #279332864 09:47:04 02:00:04
START 00:00:02

// Track 28
TRACK AUDIO
NO COPY
NO PRE_EMPHASIS
TWO_CHANNEL_AUDIO
FILE "TOMBRAIDER2.bin" #279332864 11:47:08 01:59:27
START 00:00:15

// Track 29
TRACK AUDIO
NO COPY
NO PRE_EMPHASIS
TWO_CHANNEL_AUDIO
FILE "TOMBRAIDER2.bin" #279332864 13:46:35 02:48:31
START 00:00:07

// Track 30
TRACK AUDIO
NO COPY
NO PRE_EMPHASIS
TWO_CHANNEL_AUDIO
FILE "TOMBRAIDER2.bin" #279332864 16:34:66 03:05:67
START 00:00:14

// Track 31
TRACK AUDIO
NO COPY
NO PRE_EMPHASIS
TWO_CHANNEL_AUDIO
FILE "TOMBRAIDER2.bin" #279332864 19:40:58 00:09:48
START 00:00:03

// Track 32
TRACK AUDIO
NO COPY
NO PRE_EMPHASIS
TWO_CHANNEL_AUDIO
FILE "TOMBRAIDER2.bin" #279332864 19:50:31 00:06:54
START 00:00:07

// Track 33
TRACK AUDIO
NO COPY
NO PRE_EMPHASIS
TWO_CHANNEL_AUDIO
FILE "TOMBRAIDER2.bin" #279332864 19:57:10 00:17:41
START 00:00:03

// Track 34
TRACK AUDIO
NO COPY
NO PRE_EMPHASIS
TWO_CHANNEL_AUDIO
FILE "TOMBRAIDER2.bin" #279332864 20:14:51 00:56:34
START 00:00:02

// Track 35
TRACK AUDIO
NO COPY
NO PRE_EMPHASIS
TWO_CHANNEL_AUDIO
FILE "TOMBRAIDER2.bin" #279332864 21:11:10 00:21:31
START 00:00:04

// Track 36
TRACK AUDIO
NO COPY
NO PRE_EMPHASIS
TWO_CHANNEL_AUDIO
FILE "TOMBRAIDER2.bin" #279332864 21:32:41 02:40:40
START 00:00:05

// Track 37
TRACK AUDIO
NO COPY
NO PRE_EMPHASIS
TWO_CHANNEL_AUDIO
FILE "TOMBRAIDER2.bin" #279332864 24:13:06 00:14:22
START 00:00:13

// Track 38
TRACK AUDIO
NO COPY
NO PRE_EMPHASIS
TWO_CHANNEL_AUDIO
FILE "TOMBRAIDER2.bin" #279332864 24:27:28 00:13:23
START 00:00:12

// Track 39
TRACK AUDIO
NO COPY
NO PRE_EMPHASIS
TWO_CHANNEL_AUDIO
FILE "TOMBRAIDER2.bin" #279332864 24:40:51 00:17:01
START 00:00:25

// Track 40
TRACK AUDIO
NO COPY
NO PRE_EMPHASIS
TWO_CHANNEL_AUDIO
FILE "TOMBRAIDER2.bin" #279332864 24:57:52 00:19:48
START 00:00:10

// Track 41
TRACK AUDIO
NO COPY
NO PRE_EMPHASIS
TWO_CHANNEL_AUDIO
FILE "TOMBRAIDER2.bin" #279332864 25:17:25 01:01:19
START 00:00:14

// Track 42
TRACK AUDIO
NO COPY
NO PRE_EMPHASIS
TWO_CHANNEL_AUDIO
FILE "TOMBRAIDER2.bin" #279332864 26:18:44 00:34:67
START 00:00:06

// Track 43
TRACK AUDIO
NO COPY
NO PRE_EMPHASIS
TWO_CHANNEL_AUDIO
FILE "TOMBRAIDER2.bin" #279332864 26:53:36 00:06:48
START 00:00:26

// Track 44
TRACK AUDIO
NO COPY
NO PRE_EMPHASIS
TWO_CHANNEL_AUDIO
FILE "TOMBRAIDER2.bin" #279332864 27:00:09 00:15:71
START 00:00:09

// Track 45
TRACK AUDIO
NO COPY
NO PRE_EMPHASIS
TWO_CHANNEL_AUDIO
FILE "TOMBRAIDER2.bin" #279332864 27:16:05 00:11:65
START 00:00:09

// Track 46
TRACK AUDIO
NO COPY
NO PRE_EMPHASIS
TWO_CHANNEL_AUDIO
FILE "TOMBRAIDER2.bin" #279332864 27:27:70 00:14:07
START 00:00:12

// Track 47
TRACK AUDIO
NO COPY
NO PRE_EMPHASIS
TWO_CHANNEL_AUDIO
FILE "TOMBRAIDER2.bin" #279332864 27:42:02 00:10:13
START 00:00:06

// Track 48
TRACK AUDIO
NO COPY
NO PRE_EMPHASIS
TWO_CHANNEL_AUDIO
FILE "TOMBRAIDER2.bin" #279332864 27:52:15 02:44:52
START 00:00:16

// Track 49
TRACK AUDIO
NO COPY
NO PRE_EMPHASIS
TWO_CHANNEL_AUDIO
FILE "TOMBRAIDER2.bin" #279332864 30:36:67 01:13:25
START 00:00:14

// Track 50
TRACK AUDIO
NO COPY
NO PRE_EMPHASIS
TWO_CHANNEL_AUDIO
FILE "TOMBRAIDER2.bin" #279332864 31:50:17 00:09:11
START 00:00:17

// Track 51
TRACK AUDIO
NO COPY
NO PRE_EMPHASIS
TWO_CHANNEL_AUDIO
FILE "TOMBRAIDER2.bin" #279332864 31:59:28 00:43:03
START 00:00:27

// Track 52
TRACK AUDIO
NO COPY
NO PRE_EMPHASIS
TWO_CHANNEL_AUDIO
FILE "TOMBRAIDER2.bin" #279332864 32:42:31 00:12:04
START 00:00:20

// Track 53
TRACK AUDIO
NO COPY
NO PRE_EMPHASIS
TWO_CHANNEL_AUDIO
FILE "TOMBRAIDER2.bin" #279332864 32:54:35 00:50:72
START 00:00:06

// Track 54
TRACK AUDIO
NO COPY
NO PRE_EMPHASIS
TWO_CHANNEL_AUDIO
FILE "TOMBRAIDER2.bin" #279332864 33:45:32 03:31:47
START 00:00:08

// Track 55
TRACK AUDIO
NO COPY
NO PRE_EMPHASIS
TWO_CHANNEL_AUDIO
FILE "TOMBRAIDER2.bin" #279332864 37:17:04 03:31:68
START 00:00:10

// Track 56
TRACK AUDIO
NO COPY
NO PRE_EMPHASIS
TWO_CHANNEL_AUDIO
FILE "TOMBRAIDER2.bin" #279332864 40:48:72 01:47:12
START 00:00:04

// Track 57
TRACK AUDIO
NO COPY
NO PRE_EMPHASIS
TWO_CHANNEL_AUDIO
FILE "TOMBRAIDER2.bin" #279332864 42:36:09 00:25:31
START 00:00:04

// Track 58
TRACK AUDIO
NO COPY
NO PRE_EMPHASIS
TWO_CHANNEL_AUDIO
FILE "TOMBRAIDER2.bin" #279332864 43:01:40 00:23:57
START 00:00:25

// Track 59
TRACK AUDIO
NO COPY
NO PRE_EMPHASIS
TWO_CHANNEL_AUDIO
FILE "TOMBRAIDER2.bin" #279332864 43:25:22 00:19:53
START 00:00:24

// Track 60
TRACK AUDIO
NO COPY
NO PRE_EMPHASIS
TWO_CHANNEL_AUDIO
FILE "TOMBRAIDER2.bin" #279332864 43:45:00 02:47:07
START 00:00:16

// Track 61
TRACK AUDIO
NO COPY
NO PRE_EMPHASIS
TWO_CHANNEL_AUDIO
FILE "TOMBRAIDER2.bin" #279332864 46:32:07 00:05:20
START 00:00:20
