CD_ROM

CATALOG "0000000000000"

// Track 1
TRACK MODE1
NO COPY
DATAFILE "TOMB3LA.bin" 40:00:55 // length in bytes: 368752640

// Track 2
TRACK AUDIO
NO COPY
NO PRE_EMPHASIS
TWO_CHANNEL_AUDIO
SILENCE 00:02:00
FILE "TOMB3LA.bin" #368752640 0 35:30:05
START 00:02:00

// Track 3
TRACK AUDIO
NO COPY
NO PRE_EMPHASIS
TWO_CHANNEL_AUDIO
FILE "TOMB3LA.bin" #368752640 35:30:05 00:23:15
START 00:00:15

// Track 4
TRACK MODE1
NO COPY
ZERO MODE1 00:02:00
DATAFILE "TOMB3LA.bin" #748588880 00:14:05 // length in bytes: 2160640
START 00:02:00
