CD_ROM_XA

// Track 1
TRACK MODE2_FORM_MIX
NO COPY
DATAFILE "TOMB2GER.bin" 23:06:02 // length in bytes: 242831872

// Track 2
TRACK AUDIO
NO COPY
NO PRE_EMPHASIS
TWO_CHANNEL_AUDIO
SILENCE 00:02:00
FILE "TOMB2GER.bin" #242831872 0 01:27:30
START 00:02:00

// Track 3
TRACK AUDIO
NO COPY
NO PRE_EMPHASIS
TWO_CHANNEL_AUDIO
FILE "TOMB2GER.bin" #242831872 01:27:30 01:56:17
START 00:00:04

// Track 4
TRACK AUDIO
NO COPY
NO PRE_EMPHASIS
TWO_CHANNEL_AUDIO
FILE "TOMB2GER.bin" #242831872 03:23:47 02:17:53
START 00:00:12

// Track 5
TRACK AUDIO
NO COPY
NO PRE_EMPHASIS
TWO_CHANNEL_AUDIO
FILE "TOMB2GER.bin" #242831872 05:41:25 00:10:09
START 00:00:19

// Track 6
TRACK AUDIO
NO COPY
NO PRE_EMPHASIS
TWO_CHANNEL_AUDIO
FILE "TOMB2GER.bin" #242831872 05:51:34 00:09:34
START 00:00:15

// Track 7
TRACK AUDIO
NO COPY
NO PRE_EMPHASIS
TWO_CHANNEL_AUDIO
FILE "TOMB2GER.bin" #242831872 06:00:68 00:06:70
START 00:00:16

// Track 8
TRACK AUDIO
NO COPY
NO PRE_EMPHASIS
TWO_CHANNEL_AUDIO
FILE "TOMB2GER.bin" #242831872 06:07:63 00:07:19
START 00:00:22

// Track 9
TRACK AUDIO
NO COPY
NO PRE_EMPHASIS
TWO_CHANNEL_AUDIO
FILE "TOMB2GER.bin" #242831872 06:15:07 00:08:17
START 00:00:05

// Track 10
TRACK AUDIO
NO COPY
NO PRE_EMPHASIS
TWO_CHANNEL_AUDIO
FILE "TOMB2GER.bin" #242831872 06:23:24 00:14:31
START 00:00:26

// Track 11
TRACK AUDIO
NO COPY
NO PRE_EMPHASIS
TWO_CHANNEL_AUDIO
FILE "TOMB2GER.bin" #242831872 06:37:55 00:17:07
START 00:00:10

// Track 12
TRACK AUDIO
NO COPY
NO PRE_EMPHASIS
TWO_CHANNEL_AUDIO
FILE "TOMB2GER.bin" #242831872 06:54:62 00:11:37
START 00:00:14

// Track 13
TRACK AUDIO
NO COPY
NO PRE_EMPHASIS
TWO_CHANNEL_AUDIO
FILE "TOMB2GER.bin" #242831872 07:06:24 00:11:25
START 00:00:08

// Track 14
TRACK AUDIO
NO COPY
NO PRE_EMPHASIS
TWO_CHANNEL_AUDIO
FILE "TOMB2GER.bin" #242831872 07:17:49 00:06:70
START 00:00:14

// Track 15
TRACK AUDIO
NO COPY
NO PRE_EMPHASIS
TWO_CHANNEL_AUDIO
FILE "TOMB2GER.bin" #242831872 07:24:44 00:06:72
START 00:00:20

// Track 16
TRACK AUDIO
NO COPY
NO PRE_EMPHASIS
TWO_CHANNEL_AUDIO
FILE "TOMB2GER.bin" #242831872 07:31:41 00:07:17
START 00:00:25

// Track 17
TRACK AUDIO
NO COPY
NO PRE_EMPHASIS
TWO_CHANNEL_AUDIO
FILE "TOMB2GER.bin" #242831872 07:38:58 00:11:21
START 00:00:09

// Track 18
TRACK AUDIO
NO COPY
NO PRE_EMPHASIS
TWO_CHANNEL_AUDIO
FILE "TOMB2GER.bin" #242831872 07:50:04 00:06:72
START 00:00:15

// Track 19
TRACK AUDIO
NO COPY
NO PRE_EMPHASIS
TWO_CHANNEL_AUDIO
FILE "TOMB2GER.bin" #242831872 07:57:01 00:07:19
START 00:00:20

// Track 20
TRACK AUDIO
NO COPY
NO PRE_EMPHASIS
TWO_CHANNEL_AUDIO
FILE "TOMB2GER.bin" #242831872 08:04:20 00:06:64
START 00:00:03

// Track 21
TRACK AUDIO
NO COPY
NO PRE_EMPHASIS
TWO_CHANNEL_AUDIO
FILE "TOMB2GER.bin" #242831872 08:11:09 00:07:13
START 00:00:15

// Track 22
TRACK AUDIO
NO COPY
NO PRE_EMPHASIS
TWO_CHANNEL_AUDIO
FILE "TOMB2GER.bin" #242831872 08:18:22 00:06:73
START 00:00:05

// Track 23
TRACK AUDIO
NO COPY
NO PRE_EMPHASIS
TWO_CHANNEL_AUDIO
FILE "TOMB2GER.bin" #242831872 08:25:20 00:18:39
START 00:00:09

// Track 24
TRACK AUDIO
NO COPY
NO PRE_EMPHASIS
TWO_CHANNEL_AUDIO
FILE "TOMB2GER.bin" #242831872 08:43:59 00:11:11
START 00:00:19

// Track 25
TRACK AUDIO
NO COPY
NO PRE_EMPHASIS
TWO_CHANNEL_AUDIO
FILE "TOMB2GER.bin" #242831872 08:54:70 00:07:01
START 00:00:09

// Track 26
TRACK AUDIO
NO COPY
NO PRE_EMPHASIS
TWO_CHANNEL_AUDIO
FILE "TOMB2GER.bin" #242831872 09:01:71 00:53:66
START 00:00:09

// Track 27
TRACK AUDIO
NO COPY
NO PRE_EMPHASIS
TWO_CHANNEL_AUDIO
FILE "TOMB2GER.bin" #242831872 09:55:62 02:00:09
START 00:00:08

// Track 28
TRACK AUDIO
NO COPY
NO PRE_EMPHASIS
TWO_CHANNEL_AUDIO
FILE "TOMB2GER.bin" #242831872 11:55:71 01:59:53
START 00:00:10

// Track 29
TRACK AUDIO
NO COPY
NO PRE_EMPHASIS
TWO_CHANNEL_AUDIO
FILE "TOMB2GER.bin" #242831872 13:55:49 02:48:28
START 00:00:15

// Track 30
TRACK AUDIO
NO COPY
NO PRE_EMPHASIS
TWO_CHANNEL_AUDIO
FILE "TOMB2GER.bin" #242831872 16:44:02 03:06:04
START 00:00:21

// Track 31
TRACK AUDIO
NO COPY
NO PRE_EMPHASIS
TWO_CHANNEL_AUDIO
FILE "TOMB2GER.bin" #242831872 19:50:06 00:09:43
START 00:00:02

// Track 32
TRACK AUDIO
NO COPY
NO PRE_EMPHASIS
TWO_CHANNEL_AUDIO
FILE "TOMB2GER.bin" #242831872 19:59:49 00:06:57
START 00:00:16

// Track 33
TRACK AUDIO
NO COPY
NO PRE_EMPHASIS
TWO_CHANNEL_AUDIO
FILE "TOMB2GER.bin" #242831872 20:06:31 00:18:26
START 00:00:07

// Track 34
TRACK AUDIO
NO COPY
NO PRE_EMPHASIS
TWO_CHANNEL_AUDIO
FILE "TOMB2GER.bin" #242831872 20:24:57 00:56:29
START 00:00:16

// Track 35
TRACK AUDIO
NO COPY
NO PRE_EMPHASIS
TWO_CHANNEL_AUDIO
FILE "TOMB2GER.bin" #242831872 21:21:11 00:22:10
START 00:00:21

// Track 36
TRACK AUDIO
NO COPY
NO PRE_EMPHASIS
TWO_CHANNEL_AUDIO
FILE "TOMB2GER.bin" #242831872 21:43:21 02:40:56
START 00:00:02

// Track 37
TRACK AUDIO
NO COPY
NO PRE_EMPHASIS
TWO_CHANNEL_AUDIO
FILE "TOMB2GER.bin" #242831872 24:24:02 00:14:20
START 00:00:15

// Track 38
TRACK AUDIO
NO COPY
NO PRE_EMPHASIS
TWO_CHANNEL_AUDIO
FILE "TOMB2GER.bin" #242831872 24:38:22 00:13:37
START 00:00:08

// Track 39
TRACK AUDIO
NO COPY
NO PRE_EMPHASIS
TWO_CHANNEL_AUDIO
FILE "TOMB2GER.bin" #242831872 24:51:59 00:16:44
START 00:00:03

// Track 40
TRACK AUDIO
NO COPY
NO PRE_EMPHASIS
TWO_CHANNEL_AUDIO
FILE "TOMB2GER.bin" #242831872 25:08:28 00:19:70
START 00:00:22

// Track 41
TRACK AUDIO
NO COPY
NO PRE_EMPHASIS
TWO_CHANNEL_AUDIO
FILE "TOMB2GER.bin" #242831872 25:28:23 01:01:09
START 00:00:15

// Track 42
TRACK AUDIO
NO COPY
NO PRE_EMPHASIS
TWO_CHANNEL_AUDIO
FILE "TOMB2GER.bin" #242831872 26:29:32 00:35:28
START 00:00:12

// Track 43
TRACK AUDIO
NO COPY
NO PRE_EMPHASIS
TWO_CHANNEL_AUDIO
FILE "TOMB2GER.bin" #242831872 27:04:60 00:06:18
START 00:00:14

// Track 44
TRACK AUDIO
NO COPY
NO PRE_EMPHASIS
TWO_CHANNEL_AUDIO
FILE "TOMB2GER.bin" #242831872 27:11:03 00:16:08
START 00:00:25

// Track 45
TRACK AUDIO
NO COPY
NO PRE_EMPHASIS
TWO_CHANNEL_AUDIO
FILE "TOMB2GER.bin" #242831872 27:27:11 00:12:07
START 00:00:16

// Track 46
TRACK AUDIO
NO COPY
NO PRE_EMPHASIS
TWO_CHANNEL_AUDIO
FILE "TOMB2GER.bin" #242831872 27:39:18 00:14:20
START 00:00:07

// Track 47
TRACK AUDIO
NO COPY
NO PRE_EMPHASIS
TWO_CHANNEL_AUDIO
FILE "TOMB2GER.bin" #242831872 27:53:38 00:10:33
START 00:00:14

// Track 48
TRACK AUDIO
NO COPY
NO PRE_EMPHASIS
TWO_CHANNEL_AUDIO
FILE "TOMB2GER.bin" #242831872 28:03:71 02:44:71
START 00:00:14

// Track 49
TRACK AUDIO
NO COPY
NO PRE_EMPHASIS
TWO_CHANNEL_AUDIO
FILE "TOMB2GER.bin" #242831872 30:48:67 01:13:39
START 00:00:26

// Track 50
TRACK AUDIO
NO COPY
NO PRE_EMPHASIS
TWO_CHANNEL_AUDIO
FILE "TOMB2GER.bin" #242831872 32:02:31 00:09:38
START 00:00:12

// Track 51
TRACK AUDIO
NO COPY
NO PRE_EMPHASIS
TWO_CHANNEL_AUDIO
FILE "TOMB2GER.bin" #242831872 32:11:69 00:44:08
START 00:00:21

// Track 52
TRACK AUDIO
NO COPY
NO PRE_EMPHASIS
TWO_CHANNEL_AUDIO
FILE "TOMB2GER.bin" #242831872 32:56:02 00:11:68
START 00:00:21

// Track 53
TRACK AUDIO
NO COPY
NO PRE_EMPHASIS
TWO_CHANNEL_AUDIO
FILE "TOMB2GER.bin" #242831872 33:07:70 00:51:05
START 00:00:13

// Track 54
TRACK AUDIO
NO COPY
NO PRE_EMPHASIS
TWO_CHANNEL_AUDIO
FILE "TOMB2GER.bin" #242831872 33:59:00 03:31:43
START 00:00:14

// Track 55
TRACK AUDIO
NO COPY
NO PRE_EMPHASIS
TWO_CHANNEL_AUDIO
FILE "TOMB2GER.bin" #242831872 37:30:43 03:31:63
START 00:00:15

// Track 56
TRACK AUDIO
NO COPY
NO PRE_EMPHASIS
TWO_CHANNEL_AUDIO
FILE "TOMB2GER.bin" #242831872 41:02:31 01:47:42
START 00:00:09

// Track 57
TRACK AUDIO
NO COPY
NO PRE_EMPHASIS
TWO_CHANNEL_AUDIO
FILE "TOMB2GER.bin" #242831872 42:49:73 00:25:39
START 00:00:20

// Track 58
TRACK AUDIO
NO COPY
NO PRE_EMPHASIS
TWO_CHANNEL_AUDIO
FILE "TOMB2GER.bin" #242831872 43:15:37 00:23:69
START 00:00:26

// Track 59
TRACK AUDIO
NO COPY
NO PRE_EMPHASIS
TWO_CHANNEL_AUDIO
FILE "TOMB2GER.bin" #242831872 43:39:31 00:19:52
START 00:00:06

// Track 60
TRACK AUDIO
NO COPY
NO PRE_EMPHASIS
TWO_CHANNEL_AUDIO
FILE "TOMB2GER.bin" #242831872 43:59:08 02:48:51
START 00:00:08

// Track 61
TRACK AUDIO
NO COPY
NO PRE_EMPHASIS
TWO_CHANNEL_AUDIO
FILE "TOMB2GER.bin" #242831872 46:47:59 00:17:58
START 00:00:04
