CD_ROM

// Track 1
TRACK MODE1
NO COPY
DATAFILE "TOMBENG.bin" 19:21:58 // length in bytes: 178448384

// Track 2
TRACK AUDIO
NO COPY
NO PRE_EMPHASIS
TWO_CHANNEL_AUDIO
SILENCE 00:02:00
FILE "TOMBENG.bin" #178448384 0 03:16:45
START 00:02:00

// Track 3
TRACK AUDIO
NO COPY
NO PRE_EMPHASIS
TWO_CHANNEL_AUDIO
FILE "TOMBENG.bin" #178448384 03:16:45 02:00:13

// Track 4
TRACK AUDIO
NO COPY
NO PRE_EMPHASIS
TWO_CHANNEL_AUDIO
FILE "TOMBENG.bin" #178448384 05:16:58 03:03:09

// Track 5
TRACK AUDIO
NO COPY
NO PRE_EMPHASIS
TWO_CHANNEL_AUDIO
FILE "TOMBENG.bin" #178448384 08:19:67 03:08:58

// Track 6
TRACK AUDIO
NO COPY
NO PRE_EMPHASIS
TWO_CHANNEL_AUDIO
FILE "TOMBENG.bin" #178448384 11:28:50 03:07:47

// Track 7
TRACK AUDIO
NO COPY
NO PRE_EMPHASIS
TWO_CHANNEL_AUDIO
FILE "TOMBENG.bin" #178448384 14:36:22 01:03:40

// Track 8
TRACK AUDIO
NO COPY
NO PRE_EMPHASIS
TWO_CHANNEL_AUDIO
FILE "TOMBENG.bin" #178448384 15:39:62 00:57:46

// Track 9
TRACK AUDIO
NO COPY
NO PRE_EMPHASIS
TWO_CHANNEL_AUDIO
FILE "TOMBENG.bin" #178448384 16:37:33 00:15:30

// Track 10
TRACK AUDIO
NO COPY
NO PRE_EMPHASIS
TWO_CHANNEL_AUDIO
FILE "TOMBENG.bin" #178448384 16:52:63 00:36:65
